tx_baud_counter/simulation/qsim/tx_baud_counter.msim.vcd
$comment
	File created using the following command:
		vcd file tx_baud_counter.msim.vcd -direction
$end
$date
	Mon Nov 20 20:53:19 2023
$end
$version
	ModelSim Version 10.1d
$end
$timescale
	1ps
$end
$scope module tx_baud_counter_vlg_vec_tst $end
$var reg 1 ! clk $end
$var reg 1 " reset $end
$var wire 1 # baud_output $end
$var wire 1 $ sampler $end
$scope module i1 $end
$var wire 1 % gnd $end
$var wire 1 & vcc $end
$var wire 1 ' unknown $end
$var tri1 1 ( devclrn $end
$var tri1 1 ) devpor $end
$var tri1 1 * devoe $end
$var wire 1 + count[2]~16_combout $end
$var wire 1 , count[4]~20_combout $end
$var wire 1 - clk~combout $end
$var wire 1 . clk~clkctrl_outclk $end
$var wire 1 / reset~combout $end
$var wire 1 0 count[0]~11_combout $end
$var wire 1 1 count[7]~26_combout $end
$var wire 1 2 count[5]~22_combout $end
$var wire 1 3 Equal0~1_combout $end
$var wire 1 4 Equal0~0_combout $end
$var wire 1 5 count[4]~15_combout $end
$var wire 1 6 count[0]~12 $end
$var wire 1 7 count[1]~13_combout $end
$var wire 1 8 count[1]~14 $end
$var wire 1 9 count[2]~17 $end
$var wire 1 : count[3]~18_combout $end
$var wire 1 ; count[3]~19 $end
$var wire 1 < count[4]~21 $end
$var wire 1 = count[5]~23 $end
$var wire 1 > count[6]~24_combout $end
$var wire 1 ? count[6]~25 $end
$var wire 1 @ count[7]~27 $end
$var wire 1 A count[8]~28_combout $end
$var wire 1 B count[8]~29 $end
$var wire 1 C count[9]~30_combout $end
$var wire 1 D count[9]~31 $end
$var wire 1 E count[10]~32_combout $end
$var wire 1 F Equal0~2_combout $end
$var wire 1 G baud_output~0_combout $end
$var wire 1 H baud_output~reg0_regout $end
$var wire 1 I count [10] $end
$var wire 1 J count [9] $end
$var wire 1 K count [8] $end
$var wire 1 L count [7] $end
$var wire 1 M count [6] $end
$var wire 1 N count [5] $end
$var wire 1 O count [4] $end
$var wire 1 P count [3] $end
$var wire 1 Q count [2] $end
$var wire 1 R count [1] $end
$var wire 1 S count [0] $end
$upscope $end
$upscope $end
$enddefinitions $end
#0
$dumpvars
0!
1"
0#
x$
0%
1&
x'
1(
1)
1*
0+
0,
0-
0.
1/
10
01
02
13
14
05
06
07
18
09
0:
1;
0<
1=
0>
0?
1@
0A
0B
0C
1D
0E
1F
0G
0H
0S
0R
0Q
0P
0O
0N
0M
0L
0K
0J
0I
$end
#10000
1!
1-
1.
0$
1S
16
00
17
#20000
0!
0-
0.
1$
#30000
1!
1-
1.
0$
1R
0S
08
07
06
10
1+
18
17
0+
#40000
0!
0-
0.
1$
#50000
1!
1-
1.
0$
1S
16
00
08
07
1+
#60000
0!
0-
0.
1$
#70000
1!
1-
1.
0$
0R
0S
1Q
18
17
06
10
19
0+
09
1+
07
1:
0:
#80000
0!
0-
0.
1$
#90000
1!
1-
1.
0$
1S
04
16
00
17
#100000
0!
0-
0.
1$
#110000
1!
1-
1.
0$
1R
0S
08
07
14
06
10
19
0+
18
17
1:
09
1+
0:
#120000
0!
0-
0.
1$
#130000
1!
1-
1.
0$
1S
16
00
08
07
19
0+
1:
#140000
0!
0-
0.
1$
#150000
1!
1-
1.
0$
1P
0R
0S
0Q
0;
0:
18
17
06
10
09
1+
1,
0+
07
1;
1:
0,
#160000
0!
0-
0.
1$
#170000
1!
1-
1.
0$
1S
16
00
17
#180000
0!
0-
0.
1$
#190000
1!
1-
1.
0$
1R
0S
08
07
06
10
1+
18
17
0+
#200000
0!
0-
0.
1$
#210000
1!
1-
1.
0$
1S
16
00
08
07
1+
#220000
0!
0-
0.
1$
#230000
1!
1-
1.
0$
0R
0S
1Q
18
17
06
10
19
0+
09
1+
07
0;
0:
1;
1:
1,
0,
#240000
0!
0-
0.
1$
#250000
1!
1-
1.
0$
1S
16
00
17
#260000
0!
0-
0.
1$
#270000
1!
1-
1.
0$
1R
0S
08
07
06
10
19
0+
18
17
0;
0:
09
1+
1,
1;
1:
0,
#280000
0!
0-
0.
1$
#290000
1!
1-
1.
0$
1S
16
00
08
07
19
0+
0;
0:
1,
#300000
0!
0-
0.
1$
#310000
1!
1-
1.
0$
0P
0R
0S
1O
0Q
1;
1:
18
17
06
10
03
1<
0,
09
1+
0<
1,
0+
07
12
0:
02
#320000
0!
0-
0.
1$
#330000
1!
1-
1.
0$
1S
16
00
17
#340000
0!
0-
0.
1$
#350000
1!
1-
1.
0$
1R
0S
08
07
06
10
1+
18
17
0+
#360000
0!
0-
0.
1$
#370000
1!
1-
1.
0$
1S
16
00
08
07
1+
#380000
0!
0-
0.
1$
#390000
1!
1-
1.
0$
0R
0S
1Q
18
17
06
10
19
0+
09
1+
07
1:
0:
#400000
0!
0-
0.
1$
#410000
1!
1-
1.
0$
1S
04
16
00
17
#420000
0!
0-
0.
1$
#430000
1!
1-
1.
0$
1R
0S
08
07
14
06
10
19
0+
18
17
1:
09
1+
0:
#440000
0!
0-
0.
1$
#450000
1!
1-
1.
0$
1S
16
00
08
07
19
0+
1:
#460000
0!
0-
0.
1$
#470000
1!
1-
1.
0$
1P
0R
0S
0Q
0;
0:
18
17
06
10
09
1+
1<
0,
0+
07
1;
1:
12
0<
1,
02
#480000
0!
0-
0.
1$
#490000
1!
1-
1.
0$
1S
16
00
17
#500000
0!
0-
0.
1$
#510000
1!
1-
1.
0$
1R
0S
08
07
06
10
1+
18
17
0+
#520000
0!
0-
0.
1$
#530000
1!
1-
1.
0$
1S
16
00
08
07
1+
#540000
0!
0-
0.
1$
#550000
1!
1-
1.
0$
0R
0S
1Q
18
17
06
10
19
0+
09
1+
07
0;
0:
1;
1:
1<
0,
0<
1,
12
02
#560000
0!
0-
0.
1$
#570000
1!
1-
1.
0$
1S
16
00
17
#580000
0!
0-
0.
1$
#590000
1!
1-
1.
0$
1R
0S
08
07
06
10
19
0+
18
17
0;
0:
09
1+
1<
0,
1;
1:
12
0<
1,
02
#600000
0!
0-
0.
1$
#610000
1!
1-
1.
0$
1S
16
00
08
07
19
0+
0;
0:
1<
0,
12
#620000
0!
0-
0.
1$
#630000
1!
1-
1.
0$
0P
0R
0S
1N
0O
0Q
1;
1:
18
17
06
10
13
0=
02
0<
1,
09
1+
0,
0+
07
1>
1=
12
0:
0>
#640000
0!
0-
0.
1$
#650000
1!
1-
1.
0$
1S
16
00
17
#660000
0!
0-
0.
1$
#670000
1!
1-
1.
0$
1R
0S
08
07
06
10
1+
18
17
0+
#680000
0!
0-
0.
1$
#690000
1!
1-
1.
0$
1S
16
00
08
07
1+
#700000
0!
0-
0.
1$
#710000
1!
1-
1.
0$
0R
0S
1Q
18
17
06
10
19
0+
09
1+
07
1:
0:
#720000
0!
0-
0.
1$
#730000
1!
1-
1.
0$
1S
04
16
00
17
#740000
0!
0-
0.
1$
#750000
1!
1-
1.
0$
1R
0S
08
07
14
06
10
19
0+
18
17
1:
09
1+
0:
#760000
0!
0-
0.
1$
#770000
1!
1-
1.
0$
1S
16
00
08
07
19
0+
1:
#780000
0!
0-
0.
1$
#790000
1!
1-
1.
0$
1P
0R
0S
0Q
0;
0:
18
17
06
10
09
1+
1,
0+
07
1;
1:
0,
#800000
0!
0-
0.
1$
#810000
1!
1-
1.
0$
1S
16
00
17
#820000
0!
0-
0.
1$
#830000
1!
1-
1.
0$
1R
0S
08
07
06
10
1+
18
17
0+
#840000
0!
0-
0.
1$
#850000
1!
1-
1.
0$
1S
16
00
08
07
1+
#860000
0!
0-
0.
1$
#870000
1!
1-
1.
0$
0R
0S
1Q
18
17
06
10
19
0+
09
1+
07
0;
0:
1;
1:
1,
0,
#880000
0!
0-
0.
1$
#890000
1!
1-
1.
0$
1S
16
00
17
#900000
0!
0-
0.
1$
#910000
1!
1-
1.
0$
1R
0S
08
07
06
10
19
0+
18
17
0;
0:
09
1+
1,
1;
1:
0,
#920000
0!
0-
0.
1$
#930000
1!
1-
1.
0$
1S
16
00
08
07
19
0+
0;
0:
1,
#940000
0!
0-
0.
1$
#950000
1!
1-
1.
0$
0P
0R
0S
1O
0Q
1;
1:
18
17
06
10
1<
0,
09
1+
0<
1,
0+
07
0=
02
0:
1=
12
1>
0>
#960000
0!
0-
0.
1$
#970000
1!
1-
1.
0$
1S
16
00
17
#980000
0!
0-
0.
1$
#990000
1!
1-
1.
0$
1R
0S
08
07
06
10
1+
18
17
0+
#1000000
0!
0-
0.
1$
#1010000
1!
1-
1.
0$
1S
16
00
08
07
1+
#1020000
0!
0-
0.
1$
#1030000
1!
1-
1.
0$
0R
0S
1Q
18
17
06
10
19
0+
09
1+
07
1:
0:
#1040000
0!
0-
0.
1$
#1050000
1!
1-
1.
0$
1S
04
16
00
17
#1060000
0!
0-
0.
1$
#1070000
1!
1-
1.
0$
1R
0S
08
07
14
06
10
19
0+
18
17
1:
09
1+
0:
#1080000
0!
0-
0.
1$
#1090000
1!
1-
1.
0$
1S
16
00
08
07
19
0+
1:
#1100000
0!
0-
0.
1$
#1110000
1!
1-
1.
0$
1P
0R
0S
0Q
0;
0:
18
17
06
10
09
1+
1<
0,
0+
07
1;
1:
0=
02
0<
1,
1>
1=
12
0>
#1120000
0!
0-
0.
1$
#1130000
1!
1-
1.
0$
1S
16
00
17
#1140000
0!
0-
0.
1$
#1150000
1!
1-
1.
0$
1R
0S
08
07
06
10
1+
18
17
0+
#1160000
0!
0-
0.
1$
#1170000
1!
1-
1.
0$
1S
16
00
08
07
1+
#1180000
0!
0-
0.
1$
#1190000
1!
1-
1.
0$
0R
0S
1Q
18
17
06
10
19
0+
09
1+
07
0;
0:
1;
1:
1<
0,
0<
1,
0=
02
1=
12
1>
0>
#1200000
0!
0-
0.
1$
#1210000
1!
1-
1.
0$
1S
16
00
17
#1220000
0!
0-
0.
1$
#1230000
1!
1-
1.
0$
1R
0S
08
07
06
10
19
0+
18
17
0;
0:
09
1+
1<
0,
1;
1:
0=
02
0<
1,
1>
1=
12
0>
#1240000
0!
0-
0.
1$
#1250000
1!
1-
1.
0$
1S
16
00
08
07
19
0+
0;
0:
1<
0,
0=
02
1>
#1260000
0!
0-
0.
1$
#1270000
1!
1-
1.
0$
1M
0P
0R
0S
0N
0O
0Q
1?
0>
1;
1:
18
17
06
10
1=
12
0<
1,
09
1+
11
0,
0+
07
0?
1>
02
0:
01
#1280000
0!
0-
0.
1$
#1290000
1!
1-
1.
0$
1S
16
00
17
#1300000
0!
0-
0.
1$
#1310000
1!
1-
1.
0$
1R
0S
08
07
06
10
1+
18
17
0+
#1320000
0!
0-
0.
1$
#1330000
1!
1-
1.
0$
1S
16
00
08
07
1+
#1340000
0!
0-
0.
1$
#1350000
1!
1-
1.
0$
0R
0S
1Q
18
17
06
10
19
0+
09
1+
07
1:
0:
#1360000
0!
0-
0.
1$
#1370000
1!
1-
1.
0$
1S
04
16
00
17
#1380000
0!
0-
0.
1$
#1390000
1!
1-
1.
0$
1R
0S
08
07
14
06
10
19
0+
18
17
1:
09
1+
0:
#1400000
0!
0-
0.
1$
#1410000
1!
1-
1.
0$
1S
16
00
08
07
19
0+
1:
#1420000
0!
0-
0.
1$
#1430000
1!
1-
1.
0$
1P
0R
0S
0Q
0;
0:
18
17
06
10
09
1+
1,
0+
07
1;
1:
0,
#1440000
0!
0-
0.
1$
#1450000
1!
1-
1.
0$
1S
16
00
17
#1460000
0!
0-
0.
1$
#1470000
1!
1-
1.
0$
1R
0S
08
07
06
10
1+
18
17
0+
#1480000
0!
0-
0.
1$
#1490000
1!
1-
1.
0$
1S
16
00
08
07
1+
#1500000
0!
0-
0.
1$
#1510000
1!
1-
1.
0$
0R
0S
1Q
18
17
06
10
19
0+
09
1+
07
0;
0:
1;
1:
1,
0,
#1520000
0!
0-
0.
1$
#1530000
1!
1-
1.
0$
1S
16
00
17
#1540000
0!
0-
0.
1$
#1550000
1!
1-
1.
0$
1R
0S
08
07
06
10
19
0+
18
17
0;
0:
09
1+
1,
1;
1:
0,
#1560000
0!
0-
0.
1$
#1570000
1!
1-
1.
0$
1S
16
00
08
07
19
0+
0;
0:
1,
#1580000
0!
0-
0.
1$
#1590000
1!
1-
1.
0$
0P
0R
0S
1O
0Q
1;
1:
18
17
06
10
1<
0,
09
1+
0<
1,
0+
07
12
0:
02
#1600000
0!
0-
0.
1$
#1610000
1!
1-
1.
0$
1S
16
00
17
#1620000
0!
0-
0.
1$
#1630000
1!
1-
1.
0$
1R
0S
08
07
06
10
1+
18
17
0+
#1640000
0!
0-
0.
1$
#1650000
1!
1-
1.
0$
1S
16
00
08
07
1+
#1660000
0!
0-
0.
1$
#1670000
1!
1-
1.
0$
0R
0S
1Q
18
17
06
10
19
0+
09
1+
07
1:
0:
#1680000
0!
0-
0.
1$
#1690000
1!
1-
1.
0$
1S
04
16
00
17
#1700000
0!
0-
0.
1$
#1710000
1!
1-
1.
0$
1R
0S
08
07
14
06
10
19
0+
18
17
1:
09
1+
0:
#1720000
0!
0-
0.
1$
#1730000
1!
1-
1.
0$
1S
16
00
08
07
19
0+
1:
#1740000
0!
0-
0.
1$
#1750000
1!
1-
1.
0$
1P
0R
0S
0Q
0;
0:
18
17
06
10
09
1+
1<
0,
0+
07
1;
1:
12
0<
1,
02
#1760000
0!
0-
0.
1$
#1770000
1!
1-
1.
0$
1S
16
00
17
#1780000
0!
0-
0.
1$
#1790000
1!
1-
1.
0$
1R
0S
08
07
06
10
1+
18
17
0+
#1800000
0!
0-
0.
1$
#1810000
1!
1-
1.
0$
1S
16
00
08
07
1+
#1820000
0!
0-
0.
1$
#1830000
1!
1-
1.
0$
0R
0S
1Q
18
17
06
10
19
0+
09
1+
07
0;
0:
1;
1:
1<
0,
0<
1,
12
02
#1840000
0!
0-
0.
1$
#1850000
1!
1-
1.
0$
1S
16
00
17
#1860000
0!
0-
0.
1$
#1870000
1!
1-
1.
0$
1R
0S
08
07
06
10
19
0+
18
17
0;
0:
09
1+
1<
0,
1;
1:
12
0<
1,
02
#1880000
0!
0-
0.
1$
#1890000
1!
1-
1.
0$
1S
16
00
08
07
19
0+
0;
0:
1<
0,
12
#1900000
0!
0-
0.
1$
#1910000
1!
1-
1.
0$
0P
0R
0S
1N
0O
0Q
1;
1:
18
17
06
10
0=
02
0<
1,
09
1+
0,
0+
07
1?
0>
1=
12
0:
11
0?
1>
01
#1920000
0!
0-
0.
1$
#1930000
1!
1-
1.
0$
1S
16
00
17
#1940000
0!
0-
0.
1$
#1950000
1!
1-
1.
0$
1R
0S
08
07
06
10
1+
18
17
0+
#1960000
0!
0-
0.
1$
#1970000
1!
1-
1.
0$
1S
16
00
08
07
1+
#1980000
0!
0-
0.
1$
#1990000
1!
1-
1.
0$
0R
0S
1Q
18
17
06
10
19
0+
09
1+
07
1:
0:
#2000000
0!
0-
0.
1$
#2010000
1!
1-
1.
0$
1S
04
16
00
17
#2020000
0!
0-
0.
1$
#2030000
1!
1-
1.
0$
1R
0S
08
07
14
06
10
19
0+
18
17
1:
09
1+
0:
#2040000
0!
0-
0.
1$
#2050000
1!
1-
1.
0$
1S
16
00
08
07
19
0+
1:
#2060000
0!
0-
0.
1$
#2070000
1!
1-
1.
0$
1P
0R
0S
0Q
0;
0:
18
17
06
10
09
1+
1,
0+
07
1;
1:
0,
#2080000
0!
0-
0.
1$
#2090000
1!
1-
1.
0$
1S
16
00
17
#2100000
0!
0-
0.
1$
#2110000
1!
1-
1.
0$
1R
0S
08
07
06
10
1+
18
17
0+
#2120000
0!
0-
0.
1$
#2130000
1!
1-
1.
0$
1S
16
00
08
07
1+
#2140000
0!
0-
0.
1$
#2150000
1!
1-
1.
0$
0R
0S
1Q
18
17
06
10
19
0+
09
1+
07
0;
0:
1;
1:
1,
0,
#2160000
0!
0-
0.
1$
#2170000
1!
1-
1.
0$
1S
16
00
17
#2180000
0!
0-
0.
1$
#2190000
1!
1-
1.
0$
1R
0S
08
07
06
10
19
0+
18
17
0;
0:
09
1+
1,
1;
1:
0,
#2200000
0!
0-
0.
1$
#2210000
1!
1-
1.
0$
1S
16
00
08
07
19
0+
0;
0:
1,
#2220000
0!
0-
0.
1$
#2230000
1!
1-
1.
0$
0P
0R
0S
1O
0Q
1;
1:
18
17
06
10
1<
0,
09
1+
0<
1,
0+
07
0=
02
0:
1=
12
1?
0>
0?
1>
11
01
#2240000
0!
0-
0.
1$
#2250000
1!
1-
1.
0$
1S
16
00
17
#2260000
0!
0-
0.
1$
#2270000
1!
1-
1.
0$
1R
0S
08
07
06
10
1+
18
17
0+
#2280000
0!
0-
0.
1$
#2290000
1!
1-
1.
0$
1S
16
00
08
07
1+
#2300000
0!
0-
0.
1$
#2310000
1!
1-
1.
0$
0R
0S
1Q
18
17
06
10
19
0+
09
1+
07
1:
0:
#2320000
0!
0-
0.
1$
#2330000
1!
1-
1.
0$
1S
04
16
00
17
#2340000
0!
0-
0.
1$
#2350000
1!
1-
1.
0$
1R
0S
08
07
14
06
10
19
0+
18
17
1:
09
1+
0:
#2360000
0!
0-
0.
1$
#2370000
1!
1-
1.
0$
1S
16
00
08
07
19
0+
1:
#2380000
0!
0-
0.
1$
#2390000
1!
1-
1.
0$
1P
0R
0S
0Q
0;
0:
18
17
06
10
09
1+
1<
0,
0+
07
1;
1:
0=
02
0<
1,
1?
0>
1=
12
11
0?
1>
01
#2400000
0!
0-
0.
1$
#2410000
1!
1-
1.
0$
1S
16
00
17
#2420000
0!
0-
0.
1$
#2430000
1!
1-
1.
0$
1R
0S
08
07
06
10
1+
18
17
0+
#2440000
0!
0-
0.
1$
#2450000
1!
1-
1.
0$
1S
16
00
08
07
1+
#2460000
0!
0-
0.
1$
#2470000
1!
1-
1.
0$
0R
0S
1Q
18
17
06
10
19
0+
09
1+
07
0;
0:
1;
1:
1<
0,
0<
1,
0=
02
1=
12
1?
0>
0?
1>
11
01
#2480000
0!
0-
0.
1$
#2490000
1!
1-
1.
0$
1S
16
00
17
#2500000
0!
0-
0.
1$
#2510000
1!
1-
1.
0$
1R
0S
08
07
06
10
19
0+
18
17
0;
0:
09
1+
1<
0,
1;
1:
0=
02
0<
1,
1?
0>
1=
12
11
0?
1>
01
#2520000
0!
0-
0.
1$
#2530000
1!
1-
1.
0$
1S
16
00
08
07
19
0+
0;
0:
1<
0,
0=
02
1?
0>
11
#2540000
0!
0-
0.
1$
#2550000
1!
1-
1.
0$
0M
0P
0R
0S
0N
1L
0O
0Q
0?
1>
1;
1:
18
17
06
10
1=
12
0@
01
0<
1,
09
1+
1@
11
0,
0+
07
0>
1A
02
0:
0A
#2560000
0!
0-
0.
1$
#2570000
1!
1-
1.
0$
1S
16
00
17
#2580000
0!
0-
0.
1$
#2590000
1!
1-
1.
0$
1R
0S
08
07
06
10
1+
18
17
0+
#2600000
0!
0-
0.
1$
#2610000
1!
1-
1.
0$
1S
16
00
08
07
1+
#2620000
0!
0-
0.
1$
#2630000
1!
1-
1.
0$
0R
0S
1Q
18
17
06
10
19
0+
09
1+
07
1:
0:
#2640000
0!
0-
0.
1$
#2650000
1!
1-
1.
0$
1S
04
16
00
17
#2660000
0!
0-
0.
1$
#2670000
1!
1-
1.
0$
1R
0S
08
07
14
06
10
19
0+
18
17
1:
09
1+
0:
#2680000
0!
0-
0.
1$
#2690000
1!
1-
1.
0$
1S
16
00
08
07
19
0+
1:
#2700000
0!
0-
0.
1$
#2710000
1!
1-
1.
0$
1P
0R
0S
0Q
0;
0:
18
17
06
10
09
1+
1,
0+
07
1;
1:
0,
#2720000
0!
0-
0.
1$
#2730000
1!
1-
1.
0$
1S
16
00
17
#2740000
0!
0-
0.
1$
#2750000
1!
1-
1.
0$
1R
0S
08
07
06
10
1+
18
17
0+
#2760000
0!
0-
0.
1$
#2770000
1!
1-
1.
0$
1S
16
00
08
07
1+
#2780000
0!
0-
0.
1$
#2790000
1!
1-
1.
0$
0R
0S
1Q
18
17
06
10
19
0+
09
1+
07
0;
0:
1;
1:
1,
0,
#2800000
0!
0-
0.
1$
#2810000
1!
1-
1.
0$
1S
16
00
17
#2820000
0!
0-
0.
1$
#2830000
1!
1-
1.
0$
1R
0S
08
07
06
10
19
0+
18
17
0;
0:
09
1+
1,
1;
1:
0,
#2840000
0!
0-
0.
1$
#2850000
1!
1-
1.
0$
1S
16
00
08
07
19
0+
0;
0:
1,
#2860000
0!
0-
0.
1$
#2870000
1!
1-
1.
0$
0P
0R
0S
1O
0Q
1;
1:
18
17
06
10
1<
0,
09
1+
0<
1,
0+
07
12
0:
02
#2880000
0!
0-
0.
1$
#2890000
1!
1-
1.
0$
1S
16
00
17
#2900000
0!
0-
0.
1$
#2910000
1!
1-
1.
0$
1R
0S
08
07
06
10
1+
18
17
0+
#2920000
0!
0-
0.
1$
#2930000
1!
1-
1.
0$
1S
16
00
08
07
1+
#2940000
0!
0-
0.
1$
#2950000
1!
1-
1.
0$
0R
0S
1Q
18
17
06
10
19
0+
09
1+
07
1:
0:
#2960000
0!
0-
0.
1$
#2970000
1!
1-
1.
0$
1S
04
16
00
17
#2980000
0!
0-
0.
1$
#2990000
1!
1-
1.
0$
1R
0S
08
07
14
06
10
19
0+
18
17
1:
09
1+
0:
#3000000
0!
0-
0.
1$
#3010000
1!
1-
1.
0$
1S
16
00
08
07
19
0+
1:
#3020000
0!
0-
0.
1$
#3030000
1!
1-
1.
0$
1P
0R
0S
0Q
0;
0:
18
17
06
10
09
1+
1<
0,
0+
07
1;
1:
12
0<
1,
02
#3040000
0!
0-
0.
1$
#3050000
1!
1-
1.
0$
1S
16
00
17
#3060000
0!
0-
0.
1$
#3070000
1!
1-
1.
0$
1R
0S
08
07
06
10
1+
18
17
0+
#3080000
0!
0-
0.
1$
#3090000
1!
1-
1.
0$
1S
16
00
08
07
1+
#3100000
0!
0-
0.
1$
#3110000
1!
1-
1.
0$
0R
0S
1Q
18
17
06
10
19
0+
09
1+
07
0;
0:
1;
1:
1<
0,
0<
1,
12
02
#3120000
0!
0-
0.
1$
#3130000
1!
1-
1.
0$
1S
16
00
17
#3140000
0!
0-
0.
1$
#3150000
1!
1-
1.
0$
1R
0S
08
07
06
10
19
0+
18
17
0;
0:
09
1+
1<
0,
1;
1:
12
0<
1,
02
#3160000
0!
0-
0.
1$
#3170000
1!
1-
1.
0$
1S
16
00
08
07
19
0+
0;
0:
1<
0,
12
#3180000
0!
0-
0.
1$
#3190000
1!
1-
1.
0$
0P
0R
0S
1N
0O
0Q
1;
1:
18
17
06
10
0=
02
0<
1,
09
1+
0,
0+
07
1>
1=
12
0:
0>
#3200000
0!
0-
0.
1$
#3210000
1!
1-
1.
0$
1S
16
00
17
#3220000
0!
0-
0.
1$
#3230000
1!
1-
1.
0$
1R
0S
08
07
06
10
1+
18
17
0+
#3240000
0!
0-
0.
1$
#3250000
1!
1-
1.
0$
1S
16
00
08
07
1+
#3260000
0!
0-
0.
1$
#3270000
1!
1-
1.
0$
0R
0S
1Q
18
17
06
10
19
0+
09
1+
07
1:
0:
#3280000
0!
0-
0.
1$
#3290000
1!
1-
1.
0$
1S
04
16
00
17
#3300000
0!
0-
0.
1$
#3310000
1!
1-
1.
0$
1R
0S
08
07
14
06
10
19
0+
18
17
1:
09
1+
0:
#3320000
0!
0-
0.
1$
#3330000
1!
1-
1.
0$
1S
16
00
08
07
19
0+
1:
#3340000
0!
0-
0.
1$
#3350000
1!
1-
1.
0$
1P
0R
0S
0Q
0;
0:
18
17
06
10
09
1+
1,
0+
07
1;
1:
0,
#3360000
0!
0-
0.
1$
#3370000
1!
1-
1.
0$
1S
16
00
17
#3380000
0!
0-
0.
1$
#3390000
1!
1-
1.
0$
1R
0S
08
07
06
10
1+
18
17
0+
#3400000
0!
0-
0.
1$
#3410000
1!
1-
1.
0$
1S
16
00
08
07
1+
#3420000
0!
0-
0.
1$
#3430000
1!
1-
1.
0$
0R
0S
1Q
18
17
06
10
19
0+
09
1+
07
0;
0:
1;
1:
1,
0,
#3440000
0!
0-
0.
1$
#3450000
1!
1-
1.
0$
1S
16
00
17
#3460000
0!
0-
0.
1$
#3470000
1!
1-
1.
0$
1R
0S
08
07
06
10
19
0+
18
17
0;
0:
09
1+
1,
1;
1:
0,
#3480000
0!
0-
0.
1$
#3490000
1!
1-
1.
0$
1S
16
00
08
07
19
0+
0;
0:
1,
#3500000
0!
0-
0.
1$
#3510000
1!
1-
1.
0$
0P
0R
0S
1O
0Q
1;
1:
18
17
06
10
1<
0,
09
1+
0<
1,
0+
07
0=
02
0:
1=
12
1>
0>
#3520000
0!
0-
0.
1$
#3530000
1!
1-
1.
0$
1S
16
00
17
#3540000
0!
0-
0.
1$
#3550000
1!
1-
1.
0$
1R
0S
08
07
06
10
1+
18
17
0+
#3560000
0!
0-
0.
1$
#3570000
1!
1-
1.
0$
1S
16
00
08
07
1+
#3580000
0!
0-
0.
1$
#3590000
1!
1-
1.
0$
0R
0S
1Q
18
17
06
10
19
0+
09
1+
07
1:
0:
#3600000
0!
0-
0.
1$
#3610000
1!
1-
1.
0$
1S
04
16
00
17
#3620000
0!
0-
0.
1$
#3630000
1!
1-
1.
0$
1R
0S
08
07
14
06
10
19
0+
18
17
1:
09
1+
0:
#3640000
0!
0-
0.
1$
#3650000
1!
1-
1.
0$
1S
16
00
08
07
19
0+
1:
#3660000
0!
0-
0.
1$
#3670000
1!
1-
1.
0$
1P
0R
0S
0Q
0;
0:
18
17
06
10
09
1+
1<
0,
0+
07
1;
1:
0=
02
0<
1,
1>
1=
12
0>
#3680000
0!
0-
0.
1$
#3690000
1!
1-
1.
0$
1S
16
00
17
#3700000
0!
0-
0.
1$
#3710000
1!
1-
1.
0$
1R
0S
08
07
06
10
1+
18
17
0+
#3720000
0!
0-
0.
1$
#3730000
1!
1-
1.
0$
1S
16
00
08
07
1+
#3740000
0!
0-
0.
1$
#3750000
1!
1-
1.
0$
0R
0S
1Q
18
17
06
10
19
0+
09
1+
07
0;
0:
1;
1:
1<
0,
0<
1,
0=
02
1=
12
1>
0>
#3760000
0!
0-
0.
1$
#3770000
1!
1-
1.
0$
1S
16
00
17
#3780000
0!
0-
0.
1$
#3790000
1!
1-
1.
0$
1R
0S
08
07
06
10
19
0+
18
17
0;
0:
09
1+
1<
0,
1;
1:
0=
02
0<
1,
1>
1=
12
0>
#3800000
0!
0-
0.
1$
#3810000
1!
1-
1.
0$
1S
16
00
08
07
19
0+
0;
0:
1<
0,
0=
02
1>
#3820000
0!
0-
0.
1$
#3830000
1!
1-
1.
0$
1M
0P
0R
0S
0N
0O
0Q
1?
0>
1;
1:
18
17
06
10
1=
12
0<
1,
09
1+
0@
01
0,
0+
07
0?
1>
02
0:
1A
1@
11
0A
#3840000
0!
0-
0.
1$
#3850000
1!
1-
1.
0$
1S
16
00
17
#3860000
0!
0-
0.
1$
#3870000
1!
1-
1.
0$
1R
0S
08
07
06
10
1+
18
17
0+
#3880000
0!
0-
0.
1$
#3890000
1!
1-
1.
0$
1S
16
00
08
07
1+
#3900000
0!
0-
0.
1$
#3910000
1!
1-
1.
0$
0R
0S
1Q
18
17
06
10
19
0+
09
1+
07
1:
0:
#3920000
0!
0-
0.
1$
#3930000
1!
1-
1.
0$
1S
04
16
00
17
#3940000
0!
0-
0.
1$
#3950000
1!
1-
1.
0$
1R
0S
08
07
14
06
10
19
0+
18
17
1:
09
1+
0:
#3960000
0!
0-
0.
1$
#3970000
1!
1-
1.
0$
1S
16
00
08
07
19
0+
1:
#3980000
0!
0-
0.
1$
#3990000
1!
1-
1.
0$
1P
0R
0S
0Q
0;
0:
18
17
06
10
09
1+
1,
0+
07
1;
1:
0,
#4000000
0!
0-
0.
1$
#4010000
1!
1-
1.
0$
1S
16
00
17
#4020000
0!
0-
0.
1$
#4030000
1!
1-
1.
0$
1R
0S
08
07
06
10
1+
18
17
0+
#4040000
0!
0-
0.
1$
#4050000
1!
1-
1.
0$
1S
16
00
08
07
1+
#4060000
0!
0-
0.
1$
#4070000
1!
1-
1.
0$
0R
0S
1Q
18
17
06
10
19
0+
09
1+
07
0;
0:
1;
1:
1,
0,
#4080000
0!
0-
0.
1$
#4090000
1!
1-
1.
0$
1S
16
00
17
#4100000
0!
0-
0.
1$
#4110000
1!
1-
1.
0$
1R
0S
08
07
06
10
19
0+
18
17
0;
0:
09
1+
1,
1;
1:
0,
#4120000
0!
0-
0.
1$
#4130000
1!
1-
1.
0$
1S
16
00
08
07
19
0+
0;
0:
1,
#4140000
0!
0-
0.
1$
#4150000
1!
1-
1.
0$
0P
0R
0S
1O
0Q
1;
1:
18
17
06
10
1<
0,
09
1+
0<
1,
0+
07
12
0:
02
#4160000
0!
0-
0.
1$
#4170000
1!
1-
1.
0$
1S
16
00
17
#4180000
0!
0-
0.
1$
#4190000
1!
1-
1.
0$
1R
0S
08
07
06
10
1+
18
17
0+
#4200000
0!
0-
0.
1$
#4210000
1!
1-
1.
0$
1S
16
00
08
07
1+
#4220000
0!
0-
0.
1$
#4230000
1!
1-
1.
0$
0R
0S
1Q
18
17
06
10
19
0+
09
1+
07
1:
0:
#4240000
0!
0-
0.
1$
#4250000
1!
1-
1.
0$
1S
04
16
00
17
#4260000
0!
0-
0.
1$
#4270000
1!
1-
1.
0$
1R
0S
08
07
14
06
10
19
0+
18
17
1:
09
1+
0:
#4280000
0!
0-
0.
1$
#4290000
1!
1-
1.
0$
1S
16
00
08
07
19
0+
1:
#4300000
0!
0-
0.
1$
#4310000
1!
1-
1.
0$
1P
0R
0S
0Q
0;
0:
18
17
06
10
09
1+
1<
0,
0+
07
1;
1:
12
0<
1,
02
#4320000
0!
0-
0.
1$
#4330000
1!
1-
1.
0$
1S
16
00
17
#4340000
0!
0-
0.
1$
#4350000
1!
1-
1.
0$
1R
0S
08
07
06
10
1+
18
17
0+
#4360000
0!
0-
0.
1$
