tx_baud_counter/simulation/qsim/tx_baud_counter.msim.vcd
$comment
	File created using the following command:
		vcd file tx_baud_counter.msim.vcd -direction
$end
$date
	Sun Nov 26 14:07:54 2023
$end
$version
	ModelSim Version 10.1d
$end
$timescale
	1ps
$end
$scope module tx_baud_counter_vlg_vec_tst $end
$var reg 1 ! clk $end
$var reg 1 " reset $end
$var wire 1 # baud_output $end
$var wire 1 $ sampler $end
$scope module i1 $end
$var wire 1 % gnd $end
$var wire 1 & vcc $end
$var wire 1 ' unknown $end
$var tri1 1 ( devclrn $end
$var tri1 1 ) devpor $end
$var tri1 1 * devoe $end
$var wire 1 + count[2]~16_combout $end
$var wire 1 , count[4]~20_combout $end
$var wire 1 - clk~combout $end
$var wire 1 . reset~combout $end
$var wire 1 / clk~clkctrl_outclk $end
$var wire 1 0 count[0]~11_combout $end
$var wire 1 1 count[7]~26_combout $end
$var wire 1 2 count[5]~22_combout $end
$var wire 1 3 Equal0~1_combout $end
$var wire 1 4 Equal0~0_combout $end
$var wire 1 5 count[3]~15_combout $end
$var wire 1 6 count[0]~12 $end
$var wire 1 7 count[1]~13_combout $end
$var wire 1 8 count[1]~14 $end
$var wire 1 9 count[2]~17 $end
$var wire 1 : count[3]~18_combout $end
$var wire 1 ; count[3]~19 $end
$var wire 1 < count[4]~21 $end
$var wire 1 = count[5]~23 $end
$var wire 1 > count[6]~24_combout $end
$var wire 1 ? count[6]~25 $end
$var wire 1 @ count[7]~27 $end
$var wire 1 A count[8]~28_combout $end
$var wire 1 B count[8]~29 $end
$var wire 1 C count[9]~31 $end
$var wire 1 D count[10]~32_combout $end
$var wire 1 E count[9]~30_combout $end
$var wire 1 F Equal0~2_combout $end
$var wire 1 G Equal0~3_combout $end
$var wire 1 H count [10] $end
$var wire 1 I count [9] $end
$var wire 1 J count [8] $end
$var wire 1 K count [7] $end
$var wire 1 L count [6] $end
$var wire 1 M count [5] $end
$var wire 1 N count [4] $end
$var wire 1 O count [3] $end
$var wire 1 P count [2] $end
$var wire 1 Q count [1] $end
$var wire 1 R count [0] $end
$upscope $end
$upscope $end
$enddefinitions $end
#0
$dumpvars
0!
1"
0#
x$
0%
1&
x'
1(
1)
1*
0+
0,
0-
1.
0/
10
01
02
03
14
05
06
07
18
09
0:
1;
0<
1=
0>
0?
1@
0A
0B
1C
0D
0E
0F
1G
0R
0Q
0P
0O
0N
0M
0L
0K
0J
0I
0H
$end
#10000
1!
1-
1/
0$
1R
16
00
17
#20000
0!
0-
0/
1$
#30000
1!
1-
1/
0$
1Q
0R
08
07
06
10
1+
18
17
0+
#40000
0!
0-
0/
1$
#50000
1!
1-
1/
0$
1R
16
00
08
07
1+
#60000
0!
0-
0/
1$
#70000
1!
1-
1/
0$
0Q
0R
1P
18
17
06
10
19
0+
09
1+
07
1:
0:
#80000
0!
0-
0/
1$
#90000
1!
1-
1/
0$
1R
04
16
00
0G
15
17
1#
#100000
0!
0-
0/
1$
#110000
1!
1-
1/
0$
0R
0P
14
06
10
0+
1G
05
07
0#
#120000
0!
0-
0/
1$
#130000
1!
1-
1/
0$
1R
16
00
17
#140000
0!
0-
0/
1$
#150000
1!
1-
1/
0$
1Q
0R
08
07
06
10
1+
18
17
0+
#160000
0!
0-
0/
1$
#170000
1!
1-
1/
0$
1R
16
00
08
07
1+
#180000
0!
0-
0/
1$
#190000
1!
1-
1/
0$
0Q
0R
1P
18
17
06
10
19
0+
09
1+
07
1:
0:
#200000
0!
0-
0/
1$
#210000
1!
1-
1/
0$
1R
04
16
00
0G
15
17
1#
#220000
0!
0-
0/
1$
#230000
1!
1-
1/
0$
0R
0P
14
06
10
0+
1G
05
07
0#
#240000
0!
0-
0/
1$
#250000
1!
1-
1/
0$
1R
16
00
17
#260000
0!
0-
0/
1$
#270000
1!
1-
1/
0$
1Q
0R
08
07
06
10
1+
18
17
0+
#280000
0!
0-
0/
1$
#290000
1!
1-
1/
0$
1R
16
00
08
07
1+
#300000
0!
0-
0/
1$
#310000
1!
1-
1/
0$
0Q
0R
1P
18
17
06
10
19
0+
09
1+
07
1:
0:
#320000
0!
0-
0/
1$
#330000
1!
1-
1/
0$
1R
04
16
00
0G
15
17
1#
#340000
0!
0-
0/
1$
#350000
1!
1-
1/
0$
0R
0P
14
06
10
0+
1G
05
07
0#
#360000
0!
0-
0/
1$
#370000
1!
1-
1/
0$
1R
16
00
17
#380000
0!
0-
0/
1$
#390000
1!
1-
1/
0$
1Q
0R
08
07
06
10
1+
18
17
0+
#400000
0!
0-
0/
1$
#410000
1!
1-
1/
0$
1R
16
00
08
07
1+
#420000
0"
0!
0.
0-
0/
1$
15
#430000
1!
1-
1/
0$
0Q
0R
18
17
06
10
0+
07
#440000
0!
0-
0/
1$
#450000
1!
1-
1/
0$
#460000
0!
0-
0/
1$
#470000
1!
1-
1/
0$
#480000
0!
0-
0/
1$
#490000
1!
1-
1/
0$
#500000
0!
0-
0/
1$
#510000
1!
1-
1/
0$
#520000
0!
0-
0/
1$
#530000
1!
1-
1/
0$
#540000
0!
0-
0/
1$
#550000
1!
1-
1/
0$
#560000
0!
0-
0/
1$
#570000
1!
1-
1/
0$
#580000
0!
0-
0/
1$
#590000
1!
1-
1/
0$
#600000
0!
0-
0/
1$
#610000
1!
1-
1/
0$
#620000
0!
0-
0/
1$
#630000
1!
1-
1/
0$
#640000
0!
0-
0/
1$
#650000
1!
1-
1/
0$
#660000
0!
0-
0/
1$
#670000
1!
1-
1/
0$
#680000
0!
0-
0/
1$
#690000
1!
1-
1/
0$
#700000
0!
0-
0/
1$
#710000
1!
1-
1/
0$
#720000
1"
0!
1.
0-
0/
1$
05
#730000
1!
1-
1/
0$
1R
16
00
17
#740000
0!
0-
0/
1$
#750000
1!
1-
1/
0$
1Q
0R
08
07
06
10
1+
18
17
0+
#760000
0!
0-
0/
1$
#770000
1!
1-
1/
0$
1R
16
00
08
07
1+
#780000
0!
0-
0/
1$
#790000
1!
1-
1/
0$
0Q
0R
1P
18
17
06
10
19
0+
09
1+
07
1:
0:
#800000
0!
0-
0/
1$
#810000
1!
1-
1/
0$
1R
04
16
00
0G
15
17
1#
#820000
0!
0-
0/
1$
#830000
1!
1-
1/
0$
0R
0P
14
06
10
0+
1G
05
07
0#
#840000
0!
0-
0/
1$
#850000
1!
1-
1/
0$
1R
16
00
17
#860000
0!
0-
0/
1$
#870000
1!
1-
1/
0$
1Q
0R
08
07
06
10
1+
18
17
0+
#880000
0!
0-
0/
1$
#890000
1!
1-
1/
0$
1R
16
00
08
07
1+
#900000
0!
0-
0/
1$
#910000
1!
1-
1/
0$
0Q
0R
1P
18
17
06
10
19
0+
09
1+
07
1:
0:
#920000
0!
0-
0/
1$
#930000
1!
1-
1/
0$
1R
04
16
00
0G
15
17
1#
#940000
0!
0-
0/
1$
#950000
1!
1-
1/
0$
0R
0P
14
06
10
0+
1G
05
07
0#
#960000
0"
0!
0.
0-
0/
1$
15
#970000
1!
1-
1/
0$
#980000
1"
0!
1.
0-
0/
1$
05
#990000
1!
1-
1/
0$
1R
16
00
17
#1000000
0!
0-
0/
1$
#1010000
1!
1-
1/
0$
1Q
0R
08
07
06
10
1+
18
17
0+
#1020000
0!
0-
0/
1$
#1030000
1!
1-
1/
0$
1R
16
00
08
07
1+
#1040000
0!
0-
0/
1$
#1050000
1!
1-
1/
0$
0Q
0R
1P
18
17
06
10
19
0+
09
1+
07
1:
0:
#1060000
0!
0-
0/
1$
#1070000
1!
1-
1/
0$
1R
04
16
00
0G
15
17
1#
#1080000
0!
0-
0/
1$
#1090000
1!
1-
1/
0$
0R
0P
14
06
10
0+
1G
05
07
0#
#1100000
0!
0-
0/
1$
#1110000
1!
1-
1/
0$
1R
16
00
17
#1120000
0!
0-
0/
1$
#1130000
1!
1-
1/
0$
1Q
0R
08
07
06
10
1+
18
17
0+
#1140000
0!
0-
0/
1$
#1150000
1!
1-
1/
0$
1R
16
00
08
07
1+
#1160000
0!
0-
0/
1$
#1170000
1!
1-
1/
0$
0Q
0R
1P
18
17
06
10
19
0+
09
1+
07
1:
0:
#1180000
0!
0-
0/
1$
#1190000
1!
1-
1/
0$
1R
04
16
00
0G
15
17
1#
