tx_controller/simulation/qsim/tx_controller.msim.vcd
$comment
	File created using the following command:
		vcd file tx_controller.msim.vcd -direction
$end
$date
	Thu Nov 23 19:31:10 2023
$end
$version
	ModelSim Version 10.1d
$end
$timescale
	1ps
$end
$scope module tx_controller_vlg_vec_tst $end
$var reg 1 ! clk $end
$var reg 1 " ctrl_baud $end
$var reg 1 # ctrl_counter $end
$var reg 1 $ ctrl_pulser $end
$var reg 1 % reset $end
$var wire 1 & ctrl_sr_load $end
$var wire 1 ' ctrl_sr_shift $end
$var wire 1 ( current_state [1] $end
$var wire 1 ) current_state [0] $end
$var wire 1 * sampler $end
$scope module i1 $end
$var wire 1 + gnd $end
$var wire 1 , vcc $end
$var wire 1 - unknown $end
$var tri1 1 . devclrn $end
$var tri1 1 / devpor $end
$var tri1 1 0 devoe $end
$var wire 1 1 ctrl_pulser~combout $end
$var wire 1 2 ctrl_counter~combout $end
$var wire 1 3 clk~combout $end
$var wire 1 4 clk~clkctrl_outclk $end
$var wire 1 5 reset~combout $end
$var wire 1 6 current_state[0]~1_combout $end
$var wire 1 7 current_state[0]~2_combout $end
$var wire 1 8 current_state[1]~4_combout $end
$var wire 1 9 current_state[1]~reg0_regout $end
$var wire 1 : current_state[0]~0_combout $end
$var wire 1 ; current_state[0]~3_combout $end
$var wire 1 < current_state[0]~reg0_regout $end
$var wire 1 = Equal0~0_combout $end
$var wire 1 > ctrl_baud~combout $end
$var wire 1 ? ctrl_sr_shift~0_combout $end
$upscope $end
$upscope $end
$enddefinitions $end
#0
$dumpvars
0!
0"
0#
0$
1%
0&
0'
0)
0(
x*
0+
1,
x-
1.
1/
10
01
02
03
04
15
16
07
08
09
0:
0;
0<
0=
0>
0?
$end
#10000
1!
13
14
0*
#20000
1$
1"
0!
11
1>
03
04
1*
1:
06
1;
#30000
1!
13
14
0*
1<
1=
0:
18
1)
0;
1&
#40000
0$
0"
0!
01
0>
03
04
1*
#50000
1!
13
14
0*
0<
19
0=
08
17
0)
1(
18
0&
#60000
1"
0!
1>
03
04
1*
1?
1'
#70000
1!
13
14
0*
#80000
0"
0!
0>
03
04
1*
0?
0'
#90000
1!
13
14
0*
#100000
1"
0!
1>
03
04
1*
1?
1'
#110000
1!
13
14
0*
#120000
0"
0!
0>
03
04
1*
0?
0'
#130000
1!
13
14
0*
#140000
1"
0!
1>
03
04
1*
1?
1'
#150000
1!
13
14
0*
#160000
0"
0!
0>
03
04
1*
0?
0'
#170000
1!
13
14
0*
#180000
1"
0!
1>
03
04
1*
1?
1'
#190000
1!
13
14
0*
#200000
0"
0!
0>
03
04
1*
0?
0'
#210000
1!
13
14
0*
#220000
1"
0!
1>
03
04
1*
1?
1'
#230000
1!
13
14
0*
#240000
0"
0!
0>
03
04
1*
0?
0'
#250000
1!
13
14
0*
#260000
1"
0!
1>
03
04
1*
1?
1'
#270000
1!
13
14
0*
#280000
0"
0!
0>
03
04
1*
0?
0'
#290000
1!
13
14
0*
#300000
1"
0!
1>
03
04
1*
1?
1'
#310000
1!
13
14
0*
#320000
0"
0!
0>
03
04
1*
0?
0'
#330000
1!
13
14
0*
#340000
1"
0!
1>
03
04
1*
1?
1'
#350000
1!
13
14
0*
#360000
0"
0!
0>
03
04
1*
0?
0'
#370000
1!
13
14
0*
#380000
1"
0!
1>
03
04
1*
1?
1'
#390000
1!
13
14
0*
#400000
0"
0!
0>
03
04
1*
0?
0'
#410000
1!
13
14
0*
#420000
1"
0!
1>
03
04
1*
1?
1'
#430000
1!
13
14
0*
#440000
0"
0!
0>
03
04
1*
0?
0'
#450000
1!
13
14
0*
#460000
1#
1"
0!
12
1>
03
04
1*
07
1?
08
1'
#470000
1!
13
14
0*
09
0?
16
0(
0'
#480000
0#
0"
0!
02
0>
03
04
1*
#490000
1!
13
14
0*
#500000
1"
0!
1>
03
04
1*
#510000
1!
13
14
0*
#520000
0"
0!
0>
03
04
1*
#530000
1!
13
14
0*
#540000
1"
0!
1>
03
04
1*
#550000
1!
13
14
0*
#560000
0"
0!
0>
03
04
1*
#570000
1!
13
14
0*
#580000
1$
1"
0!
11
1>
03
04
1*
1:
06
1;
#590000
1!
13
14
0*
1<
1=
0:
18
1)
0;
1&
#600000
0$
0"
0!
01
0>
03
04
1*
#610000
1!
13
14
0*
0<
19
0=
08
17
0)
1(
18
0&
#620000
1"
0!
1>
03
04
1*
1?
1'
#630000
1!
13
14
0*
#640000
0"
0!
0>
03
04
1*
0?
0'
#650000
1!
13
14
0*
#660000
1"
0!
1>
03
04
1*
1?
1'
#670000
1!
13
14
0*
#680000
0"
0!
0>
03
04
1*
0?
0'
#690000
1!
13
14
0*
#700000
1"
0!
1>
03
04
1*
1?
1'
#710000
1!
13
14
0*
#720000
0"
0!
0>
03
04
1*
0?
0'
#730000
1!
13
14
0*
#740000
1"
0!
1>
03
04
1*
1?
1'
#750000
1!
13
14
0*
#760000
0"
0!
0>
03
04
1*
0?
0'
#770000
1!
13
14
0*
#780000
1"
0!
1>
03
04
1*
1?
1'
#790000
1!
13
14
0*
#800000
0"
0!
0>
03
04
1*
0?
0'
#810000
1!
13
14
0*
#820000
1"
0!
1>
03
04
1*
1?
1'
#830000
1!
13
14
0*
#840000
0"
0!
0>
03
04
1*
0?
0'
#850000
1!
13
14
0*
#860000
1"
0!
1>
03
04
1*
1?
1'
#870000
1!
13
14
0*
#880000
0"
0!
0>
03
04
1*
0?
0'
#890000
1!
13
14
0*
#900000
1"
0!
1>
03
04
1*
1?
1'
#910000
1!
13
14
0*
#920000
0"
0!
0>
03
04
1*
0?
0'
#930000
1!
13
14
0*
#940000
1"
0!
1>
03
04
1*
1?
1'
#950000
1!
13
14
0*
#960000
0"
0!
0>
03
04
1*
0?
0'
#970000
1!
13
14
0*
#980000
1"
0!
1>
03
04
1*
1?
1'
#990000
1!
13
14
0*
