tx_uart/simulation/qsim/tx_uart.msim.vcd
$comment
	File created using the following command:
		vcd file tx_uart.msim.vcd -direction
$end
$date
	Sun Nov 26 18:59:20 2023
$end
$version
	ModelSim Version 10.1d
$end
$timescale
	1ps
$end
$scope module tx_uart_vlg_vec_tst $end
$var reg 1 ! CLOCK_50 $end
$var reg 4 " KEY [3:0] $end
$var reg 7 # SW [8:2] $end
$var wire 1 $ HEX4 [6] $end
$var wire 1 % HEX4 [5] $end
$var wire 1 & HEX4 [4] $end
$var wire 1 ' HEX4 [3] $end
$var wire 1 ( HEX4 [2] $end
$var wire 1 ) HEX4 [1] $end
$var wire 1 * HEX4 [0] $end
$var wire 1 + HEX5 [6] $end
$var wire 1 , HEX5 [5] $end
$var wire 1 - HEX5 [4] $end
$var wire 1 . HEX5 [3] $end
$var wire 1 / HEX5 [2] $end
$var wire 1 0 HEX5 [1] $end
$var wire 1 1 HEX5 [0] $end
$var wire 1 2 UART_TXD $end
$var wire 1 3 ctrl_state [1] $end
$var wire 1 4 ctrl_state [0] $end
$var wire 1 5 sampler $end
$scope module i1 $end
$var wire 1 6 gnd $end
$var wire 1 7 vcc $end
$var wire 1 8 unknown $end
$var tri1 1 9 devclrn $end
$var tri1 1 : devpor $end
$var tri1 1 ; devoe $end
$var wire 1 < baud|count[5]~22_combout $end
$var wire 1 = ctrl|current_state[1]~4_combout $end
$var wire 1 > counter|Add0~0_combout $end
$var wire 1 ? counter|count[3]~4_combout $end
$var wire 1 @ sr|tmp_data~8_combout $end
$var wire 1 A sr|tmp_data~9_combout $end
$var wire 1 B sr|tmp_data~10_combout $end
$var wire 1 C sr|tmp_data~11_combout $end
$var wire 1 D sr|tmp_data~12_combout $end
$var wire 1 E parity|WideXnor0~0_combout $end
$var wire 1 F parity|WideXnor0~combout $end
$var wire 1 G sr|tmp_data~13_combout $end
$var wire 1 H sr|tmp_data~15_combout $end
$var wire 1 I CLOCK_50~combout $end
$var wire 1 J CLOCK_50~clkctrl_outclk $end
$var wire 1 K baud|count[0]~12 $end
$var wire 1 L baud|count[1]~14_combout $end
$var wire 1 M baud|count[2]~17 $end
$var wire 1 N baud|count[3]~19 $end
$var wire 1 O baud|count[4]~20_combout $end
$var wire 1 P baud|count[4]~21 $end
$var wire 1 Q baud|count[5]~23 $end
$var wire 1 R baud|count[6]~24_combout $end
$var wire 1 S baud|count[6]~25 $end
$var wire 1 T baud|count[7]~27 $end
$var wire 1 U baud|count[8]~28_combout $end
$var wire 1 V baud|count[8]~29 $end
$var wire 1 W baud|count[9]~30_combout $end
$var wire 1 X baud|count[9]~31 $end
$var wire 1 Y baud|count[10]~32_combout $end
$var wire 1 Z ctrl|ctrl_sr_shift~2_combout $end
$var wire 1 [ baud|count[7]~26_combout $end
$var wire 1 \ ctrl|ctrl_sr_shift~1_combout $end
$var wire 1 ] baud|count[1]~13_combout $end
$var wire 1 ^ baud|count[1]~15 $end
$var wire 1 _ baud|count[2]~16_combout $end
$var wire 1 ` baud|count[3]~18_combout $end
$var wire 1 a baud|count[0]~11_combout $end
$var wire 1 b ctrl|ctrl_sr_shift~0_combout $end
$var wire 1 c synchroniser|ff1~0_combout $end
$var wire 1 d synchroniser|ff1~regout $end
$var wire 1 e synchroniser|ff2~regout $end
$var wire 1 f pulser|current_state~0_combout $end
$var wire 1 g pulser|current_state~regout $end
$var wire 1 h ctrl|current_state[0]~1_combout $end
$var wire 1 i ctrl|current_state[0]~2_combout $end
$var wire 1 j ctrl|current_state[0]~0_combout $end
$var wire 1 k ctrl|current_state[0]~3_combout $end
$var wire 1 l ctrl|ctrl_sr_shift~3_combout $end
$var wire 1 m ctrl|ctrl_sr_shift~combout $end
$var wire 1 n counter|count[0]~2_combout $end
$var wire 1 o counter|count[1]~3_combout $end
$var wire 1 p counter|count[0]~7_combout $end
$var wire 1 q counter|count[2]~5_combout $end
$var wire 1 r counter|count[2]~6_combout $end
$var wire 1 s counter|Equal0~0_combout $end
$var wire 1 t ctrl|current_state[1]~5_combout $end
$var wire 1 u ctrl|Equal0~0_combout $end
$var wire 1 v sr|tmp_data~7_combout $end
$var wire 1 w sr|tmp_data[0]~14_combout $end
$var wire 1 x sr|tmp_data~6_combout $end
$var wire 1 y sr|tmp_data~5_combout $end
$var wire 1 z sr|tmp_data~4_combout $end
$var wire 1 { msb|WideOr6~0_combout $end
$var wire 1 | msb|WideOr5~0_combout $end
$var wire 1 } msb|Decoder0~0_combout $end
$var wire 1 ~ msb|WideOr3~0_combout $end
$var wire 1 !! msb|WideOr2~0_combout $end
$var wire 1 "! msb|WideOr1~0_combout $end
$var wire 1 #! msb|WideOr0~0_combout $end
$var wire 1 $! lsb|WideOr6~0_combout $end
$var wire 1 %! lsb|WideOr5~0_combout $end
$var wire 1 &! lsb|WideOr4~0_combout $end
$var wire 1 '! lsb|WideOr3~0_combout $end
$var wire 1 (! lsb|WideOr2~0_combout $end
$var wire 1 )! lsb|WideOr1~0_combout $end
$var wire 1 *! lsb|WideOr0~0_combout $end
$var wire 1 +! SW~combout [8] $end
$var wire 1 ,! SW~combout [7] $end
$var wire 1 -! SW~combout [6] $end
$var wire 1 .! SW~combout [5] $end
$var wire 1 /! SW~combout [4] $end
$var wire 1 0! SW~combout [3] $end
$var wire 1 1! SW~combout [2] $end
$var wire 1 2! KEY~combout [3] $end
$var wire 1 3! KEY~combout [2] $end
$var wire 1 4! KEY~combout [1] $end
$var wire 1 5! KEY~combout [0] $end
$var wire 1 6! ctrl|current_state [1] $end
$var wire 1 7! ctrl|current_state [0] $end
$var wire 1 8! counter|count [3] $end
$var wire 1 9! counter|count [2] $end
$var wire 1 :! counter|count [1] $end
$var wire 1 ;! counter|count [0] $end
$var wire 1 <! sr|tmp_data [10] $end
$var wire 1 =! sr|tmp_data [9] $end
$var wire 1 >! sr|tmp_data [8] $end
$var wire 1 ?! sr|tmp_data [7] $end
$var wire 1 @! sr|tmp_data [6] $end
$var wire 1 A! sr|tmp_data [5] $end
$var wire 1 B! sr|tmp_data [4] $end
$var wire 1 C! sr|tmp_data [3] $end
$var wire 1 D! sr|tmp_data [2] $end
$var wire 1 E! sr|tmp_data [1] $end
$var wire 1 F! sr|tmp_data [0] $end
$var wire 1 G! baud|count [10] $end
$var wire 1 H! baud|count [9] $end
$var wire 1 I! baud|count [8] $end
$var wire 1 J! baud|count [7] $end
$var wire 1 K! baud|count [6] $end
$var wire 1 L! baud|count [5] $end
$var wire 1 M! baud|count [4] $end
$var wire 1 N! baud|count [3] $end
$var wire 1 O! baud|count [2] $end
$var wire 1 P! baud|count [1] $end
$var wire 1 Q! baud|count [0] $end
$upscope $end
$upscope $end
$enddefinitions $end
#0
$dumpvars
0!
b1xx1 "
b1100001 #
1*
0)
0(
1'
1&
1%
1$
01
10
0/
0.
0-
0,
0+
12
04
03
x5
06
17
x8
19
1:
1;
0<
0=
0>
0?
0@
0A
0B
0C
0D
0E
1F
1G
0H
0I
0J
0K
0L
0M
1N
0O
0P
1Q
0R
0S
1T
0U
0V
0W
1X
0Y
1Z
0[
1\
0]
1^
0_
0`
1a
0b
0c
0d
0e
0f
0g
1h
1i
0j
0k
0l
0m
1n
0o
0p
1q
0r
0s
0t
1u
0v
0w
0x
0y
0z
0{
1|
0}
0~
0!!
0"!
0#!
1$!
0%!
0&!
1'!
1(!
1)!
0*!
11!
00!
0/!
0.!
0-!
1,!
1+!
15!
z4!
z3!
12!
07!
06!
0;!
0:!
09!
08!
0F!
0E!
0D!
0C!
0B!
0A!
0@!
0?!
0>!
0=!
0<!
0Q!
0P!
0O!
0N!
0M!
0L!
0K!
0J!
0I!
0H!
0G!
$end
#10000
1!
1I
1J
05
1Q!
1b
1K
0a
1]
1L
#20000
b0xx1 "
0!
02!
0I
0J
15
1c
#30000
1!
1I
1J
05
1d
0Q!
0b
0K
1a
0]
0L
#40000
b1xx1 "
0!
12!
0I
0J
15
0c
#50000
1!
1I
1J
05
1e
0d
1Q!
1j
0h
1f
1b
1K
0a
0i
1]
1L
1k
#60000
0!
0I
0J
15
#70000
1!
1I
1J
05
17!
1g
0e
0Q!
1y
1w
0u
0j
1H
0f
0b
0K
1a
14
1v
1t
1B
1A
1@
0k
0]
0L
#80000
0!
0I
0J
15
#90000
1!
1I
1J
05
1E!
1C!
16!
07!
0g
1Q!
1=!
1@!
1A!
1B!
1<!
1z
0y
0w
1u
1l
1i
1=
1b
1K
0a
13
04
1x
0G
1D
0B
1m
1]
1L
1w
1r
0q
1p
0r
#100000
0!
0I
0J
15
#110000
1!
1I
1J
05
1F!
0E!
1D!
1;!
0Q!
0=!
1>!
0@!
0z
1y
0p
1o
0b
0K
1a
0D
1C
0A
02
0m
0]
0L
0w
1q
1p
0o
#120000
b0xx1 "
0!
02!
0I
0J
15
1c
#130000
1!
1I
1J
05
1d
1Q!
1b
1K
0a
1m
1]
1L
1w
1r
0q
0p
1o
0r
#140000
b1xx1 "
0!
12!
0I
0J
15
0c
#150000
1!
1I
1J
05
0F!
1E!
0;!
1:!
1e
0d
0Q!
0>!
1?!
0A!
1z
1p
1f
0b
0K
1a
0C
1B
0@
12
0m
0]
0L
0w
1q
0p
#160000
0!
0I
0J
15
#170000
1!
1I
1J
05
1g
0e
1Q!
0f
1b
1K
0a
1m
1]
1L
1w
1r
0q
1p
0r
#180000
0!
0I
0J
15
#190000
1!
1I
1J
05
1F!
1;!
0g
0Q!
0?!
1@!
0B!
1q
0p
0o
0b
0K
1a
0B
1A
0v
02
1r
0m
0]
0L
0w
0r
1p
1o
#200000
0!
0I
0J
15
#210000
1!
1I
1J
05
1Q!
1b
1K
0a
1m
1]
1L
1w
1r
0p
0o
#220000
0!
0I
0J
15
#230000
1!
1I
1J
05
0C!
19!
0;!
0:!
0Q!
0@!
1A!
0x
0r
0q
1p
0b
0K
1a
0A
1@
1r
0m
0]
0L
0w
0r
1q
0p
1r
#240000
0!
0I
0J
15
#250000
1!
1I
1J
05
1Q!
1b
1K
0a
1m
1]
1L
1w
0r
0q
1p
1r
#260000
0!
0I
0J
15
#270000
1!
1I
1J
05
0D!
1;!
0Q!
0A!
1B!
0y
0p
1o
0b
0K
1a
0@
1v
0m
0]
0L
0w
0r
1q
1p
0o
1r
#280000
0!
0I
0J
15
#290000
1!
1I
1J
05
1Q!
1b
1K
0a
1m
1]
1L
1w
0r
0q
0p
1o
1r
#300000
b0xx1 "
0!
02!
0I
0J
15
1c
#310000
1!
1I
1J
05
0E!
1C!
0;!
1:!
1d
0Q!
0B!
0z
1x
1p
0b
0K
1a
0v
0m
0]
0L
0w
0r
1q
0p
1r
#320000
b1xx1 "
0!
12!
0I
0J
15
0c
#330000
1!
1I
1J
05
1e
0d
1Q!
1f
1b
1K
0a
1m
1]
1L
1w
0r
0q
1p
1r
#340000
0!
0I
0J
15
#350000
1!
1I
1J
05
0F!
1D!
0C!
1;!
1g
0e
0Q!
1y
0x
1q
0p
0o
1>
0f
0b
0K
1a
12
0r
1?
0m
0]
0L
0w
1r
1p
1o
0?
#360000
0!
0I
0J
15
#370000
1!
1I
1J
05
0g
1Q!
1b
1K
0a
1m
1]
1L
1w
0r
0p
0o
1?
#380000
0!
0I
0J
15
#390000
1!
1I
1J
05
1E!
0D!
09!
0;!
0:!
0Q!
18!
1z
0y
1r
0q
1p
0b
0K
1a
0r
0m
0]
0L
0w
1q
0p
#400000
0!
0I
0J
15
#410000
1!
1I
1J
05
1Q!
1b
1K
0a
1m
1]
1L
1w
1r
0q
1p
0r
#420000
0!
0I
0J
15
#430000
1!
1I
1J
05
1F!
0E!
1;!
0Q!
0z
0p
1o
0b
0K
1a
02
0m
0]
0L
0w
1q
1p
0o
#440000
0!
0I
0J
15
#450000
1!
1I
1J
05
1Q!
1b
1K
0a
1m
1]
1L
1w
1r
0q
0p
1o
0r
#460000
0!
0I
0J
15
#470000
1!
1I
1J
05
0F!
0;!
1:!
0Q!
1s
1p
0b
0K
1a
12
0t
0p
0n
0i
0m
0]
0L
0o
0?
0w
1q
#480000
0!
0I
0J
15
#490000
1!
1I
1J
05
06!
0:!
1Q!
08!
0l
1h
0=
0s
0>
1b
1K
0a
03
1i
1n
1]
1L
#500000
0!
0I
0J
15
#510000
1!
1I
1J
05
0Q!
0b
0K
1a
0]
0L
#520000
0!
0I
0J
15
#530000
1!
1I
1J
05
1Q!
1b
1K
0a
1]
1L
#540000
0!
0I
0J
15
#550000
1!
1I
1J
05
0Q!
0b
0K
1a
0]
0L
#560000
0!
0I
0J
15
#570000
1!
1I
1J
05
1Q!
1b
1K
0a
1]
1L
#580000
0!
0I
0J
15
#590000
b100001 #
b100101 #
b100111 #
1!
10!
1/!
0+!
1I
1J
05
0$!
1E
1"!
1}
0|
0F
0*
1,
1/
00
0Q!
0b
0K
1a
0]
0L
#600000
b0xx1 "
0!
02!
0I
0J
15
1c
#610000
1!
1I
1J
05
1d
1Q!
1b
1K
0a
1]
1L
#620000
0!
0I
0J
15
#630000
1!
1I
1J
05
1e
0Q!
1j
0h
1f
0b
0K
1a
0i
0]
0L
1k
#640000
0!
0I
0J
15
#650000
1!
1I
1J
05
17!
1g
1Q!
1y
1w
0u
0j
1b
1K
0a
14
1t
1D
1B
1A
0k
1]
1L
#660000
0!
0I
0J
15
#670000
1!
1I
1J
05
1E!
16!
07!
0Q!
1>!
1@!
1A!
1z
0y
0w
1u
1l
1i
1=
0b
0K
1a
13
04
0D
1C
0B
1@
0]
0L
#680000
b1xx1 "
0!
12!
0I
0J
15
0c
#690000
1!
1I
1J
05
0d
1Q!
1b
1K
0a
1m
1]
1L
1w
1r
0q
1p
0r
#700000
0!
0I
0J
15
#710000
1!
1I
1J
05
1F!
0E!
1;!
0e
0Q!
0>!
1?!
0@!
1B!
0z
0p
1o
0f
0b
0K
1a
0C
1B
0A
1v
02
0m
0]
0L
0w
1q
1p
0o
#720000
0!
0I
0J
15
#730000
1!
1I
1J
05
0g
1Q!
1b
1K
0a
1m
1]
1L
1w
1r
0q
0p
1o
0r
#740000
0!
0I
0J
15
#750000
1!
1I
1J
05
0F!
1C!
0;!
1:!
0Q!
0?!
1@!
0A!
1x
1p
0b
0K
1a
0B
1A
0@
12
0m
0]
0L
0w
1q
0p
#760000
0!
0I
0J
15
#770000
1!
1I
1J
05
1Q!
1b
1K
0a
1m
1]
1L
1w
1r
0q
1p
0r
#780000
0!
0I
0J
15
#790000
1!
1I
1J
05
1D!
1;!
0Q!
0@!
1A!
0B!
1y
1q
0p
0o
0b
0K
1a
0A
1@
0v
1r
0m
0]
0L
0w
0r
1p
1o
#800000
0!
0I
0J
15
#810000
1!
1I
1J
05
1Q!
1b
1K
0a
1m
1]
1L
1w
1r
0p
0o
#820000
0!
0I
0J
15
#830000
1!
1I
1J
05
1E!
0C!
19!
0;!
0:!
0Q!
0A!
1B!
1z
0x
0r
0q
1p
0b
0K
1a
0@
1v
1r
0m
0]
0L
0w
0r
1q
0p
1r
#840000
0!
0I
0J
15
#850000
1!
1I
1J
05
1Q!
1b
1K
0a
1m
1]
1L
1w
0r
0q
1p
1r
#860000
0!
0I
0J
15
#870000
1!
1I
1J
05
1F!
0D!
1C!
1;!
0Q!
0B!
0y
1x
0p
1o
0b
0K
1a
0v
02
0m
0]
0L
0w
0r
1q
1p
0o
1r
#880000
0!
0I
0J
15
#890000
1!
1I
1J
05
1Q!
1b
1K
0a
1m
1]
1L
1w
0r
0q
0p
1o
1r
#900000
0!
0I
0J
15
#910000
1!
1I
1J
05
0E!
1D!
0C!
0;!
1:!
0Q!
0z
1y
0x
1p
0b
0K
1a
0m
0]
0L
0w
0r
1q
0p
1r
#920000
0!
0I
0J
15
#930000
1!
1I
1J
05
1Q!
1b
1K
0a
1m
1]
1L
1w
0r
0q
1p
1r
#940000
0!
0I
0J
15
#950000
1!
1I
1J
05
0F!
1E!
0D!
1;!
0Q!
1z
0y
1q
0p
0o
1>
0b
0K
1a
12
0r
1?
0m
0]
0L
0w
1r
1p
1o
0?
#960000
0!
0I
0J
15
#970000
1!
1I
1J
05
1Q!
1b
1K
0a
1m
1]
1L
1w
0r
0p
0o
1?
#980000
0!
0I
0J
15
#990000
1!
1I
1J
05
1F!
0E!
09!
0;!
0:!
0Q!
18!
0z
1r
0q
1p
0b
0K
1a
02
0r
0m
0]
0L
0w
1q
0p
#1000000
0!
0I
0J
15
#1010000
1!
1I
1J
05
1Q!
1b
1K
0a
1m
1]
1L
1w
1r
0q
1p
0r
#1020000
0!
0I
0J
15
#1030000
1!
1I
1J
05
0F!
1;!
0Q!
0p
1o
0b
0K
1a
12
0m
0]
0L
0w
1q
1p
0o
#1040000
0!
0I
0J
15
#1050000
1!
1I
1J
05
1Q!
1b
1K
0a
1m
1]
1L
1w
1r
0q
0p
1o
0r
#1060000
0!
0I
0J
15
#1070000
1!
1I
1J
05
0;!
1:!
0Q!
1s
1p
0b
0K
1a
0t
0p
0n
0i
0m
0]
0L
0o
0?
0w
1q
#1080000
0!
0I
0J
15
#1090000
1!
1I
1J
05
06!
0:!
1Q!
08!
0l
1h
0=
0s
0>
1b
1K
0a
03
1i
1n
1]
1L
#1100000
0!
0I
0J
15
#1110000
1!
1I
1J
05
0Q!
0b
0K
1a
0]
0L
#1120000
0!
0I
0J
15
#1130000
1!
1I
1J
05
1Q!
1b
1K
0a
1]
1L
#1140000
0!
0I
0J
15
#1150000
1!
1I
1J
05
0Q!
0b
0K
1a
0]
0L
#1160000
0!
0I
0J
15
#1170000
1!
1I
1J
05
1Q!
1b
1K
0a
1]
1L
#1180000
0!
0I
0J
15
#1190000
1!
1I
1J
05
0Q!
0b
0K
1a
0]
0L
