tx_uart/simulation/qsim/tx_uart.msim.vcd
$comment
	File created using the following command:
		vcd file tx_uart.msim.vcd -direction
$end
$date
	Thu Nov 23 20:51:40 2023
$end
$version
	ModelSim Version 10.1d
$end
$timescale
	1ps
$end
$scope module tx_uart_vlg_vec_tst $end
$var reg 1 ! CLOCK_50 $end
$var reg 4 " KEY [3:0] $end
$var reg 7 # SW [8:2] $end
$var wire 1 $ HEX4 [6] $end
$var wire 1 % HEX4 [5] $end
$var wire 1 & HEX4 [4] $end
$var wire 1 ' HEX4 [3] $end
$var wire 1 ( HEX4 [2] $end
$var wire 1 ) HEX4 [1] $end
$var wire 1 * HEX4 [0] $end
$var wire 1 + HEX5 [6] $end
$var wire 1 , HEX5 [5] $end
$var wire 1 - HEX5 [4] $end
$var wire 1 . HEX5 [3] $end
$var wire 1 / HEX5 [2] $end
$var wire 1 0 HEX5 [1] $end
$var wire 1 1 HEX5 [0] $end
$var wire 1 2 UART_TXD $end
$var wire 1 3 ctrl_state [1] $end
$var wire 1 4 ctrl_state [0] $end
$var wire 1 5 sampler $end
$scope module i1 $end
$var wire 1 6 gnd $end
$var wire 1 7 vcc $end
$var wire 1 8 unknown $end
$var tri1 1 9 devclrn $end
$var tri1 1 : devpor $end
$var tri1 1 ; devoe $end
$var wire 1 < baud|count[5]~22_combout $end
$var wire 1 = ctrl|current_state[1]~4_combout $end
$var wire 1 > counter|Add0~0_combout $end
$var wire 1 ? counter|count[3]~4_combout $end
$var wire 1 @ sr|tmp_data~8_combout $end
$var wire 1 A sr|tmp_data~9_combout $end
$var wire 1 B sr|tmp_data~10_combout $end
$var wire 1 C sr|tmp_data~11_combout $end
$var wire 1 D sr|tmp_data~12_combout $end
$var wire 1 E parity|WideXnor0~0_combout $end
$var wire 1 F parity|WideXnor0~combout $end
$var wire 1 G sr|tmp_data~13_combout $end
$var wire 1 H sr|tmp_data~15_combout $end
$var wire 1 I CLOCK_50~combout $end
$var wire 1 J CLOCK_50~clkctrl_outclk $end
$var wire 1 K baud|count[0]~12 $end
$var wire 1 L baud|count[1]~14_combout $end
$var wire 1 M baud|count[2]~17 $end
$var wire 1 N baud|count[3]~19 $end
$var wire 1 O baud|count[4]~20_combout $end
$var wire 1 P baud|count[4]~21 $end
$var wire 1 Q baud|count[5]~23 $end
$var wire 1 R baud|count[6]~24_combout $end
$var wire 1 S baud|count[6]~25 $end
$var wire 1 T baud|count[7]~27 $end
$var wire 1 U baud|count[8]~28_combout $end
$var wire 1 V baud|count[8]~29 $end
$var wire 1 W baud|count[9]~30_combout $end
$var wire 1 X baud|count[9]~31 $end
$var wire 1 Y baud|count[10]~32_combout $end
$var wire 1 Z ctrl|ctrl_sr_shift~2_combout $end
$var wire 1 [ baud|count[7]~26_combout $end
$var wire 1 \ ctrl|ctrl_sr_shift~1_combout $end
$var wire 1 ] baud|count[3]~13_combout $end
$var wire 1 ^ baud|count[1]~15 $end
$var wire 1 _ baud|count[2]~16_combout $end
$var wire 1 ` baud|count[3]~18_combout $end
$var wire 1 a baud|count[0]~11_combout $end
$var wire 1 b ctrl|ctrl_sr_shift~0_combout $end
$var wire 1 c synchroniser|ff1~0_combout $end
$var wire 1 d synchroniser|ff1~regout $end
$var wire 1 e synchroniser|ff2~regout $end
$var wire 1 f pulser|current_state~0_combout $end
$var wire 1 g pulser|current_state~regout $end
$var wire 1 h ctrl|current_state[0]~1_combout $end
$var wire 1 i ctrl|current_state[0]~2_combout $end
$var wire 1 j ctrl|current_state[0]~0_combout $end
$var wire 1 k ctrl|current_state[0]~3_combout $end
$var wire 1 l ctrl|ctrl_sr_shift~3_combout $end
$var wire 1 m ctrl|ctrl_sr_shift~combout $end
$var wire 1 n counter|count[0]~2_combout $end
$var wire 1 o counter|count[1]~3_combout $end
$var wire 1 p counter|count[0]~7_combout $end
$var wire 1 q counter|count[2]~5_combout $end
$var wire 1 r counter|count[2]~6_combout $end
$var wire 1 s counter|Equal0~0_combout $end
$var wire 1 t ctrl|current_state[1]~5_combout $end
$var wire 1 u ctrl|Equal0~0_combout $end
$var wire 1 v sr|tmp_data~7_combout $end
$var wire 1 w sr|tmp_data[0]~14_combout $end
$var wire 1 x sr|tmp_data~6_combout $end
$var wire 1 y sr|tmp_data~5_combout $end
$var wire 1 z sr|tmp_data~4_combout $end
$var wire 1 { msb|WideOr6~0_combout $end
$var wire 1 | msb|WideOr5~0_combout $end
$var wire 1 } msb|Decoder0~0_combout $end
$var wire 1 ~ msb|WideOr3~0_combout $end
$var wire 1 !! msb|WideOr2~0_combout $end
$var wire 1 "! msb|WideOr1~0_combout $end
$var wire 1 #! msb|WideOr0~0_combout $end
$var wire 1 $! lsb|WideOr6~0_combout $end
$var wire 1 %! lsb|WideOr5~0_combout $end
$var wire 1 &! lsb|WideOr4~0_combout $end
$var wire 1 '! lsb|WideOr3~0_combout $end
$var wire 1 (! lsb|WideOr2~0_combout $end
$var wire 1 )! lsb|WideOr1~0_combout $end
$var wire 1 *! lsb|WideOr0~0_combout $end
$var wire 1 +! SW~combout [8] $end
$var wire 1 ,! SW~combout [7] $end
$var wire 1 -! SW~combout [6] $end
$var wire 1 .! SW~combout [5] $end
$var wire 1 /! SW~combout [4] $end
$var wire 1 0! SW~combout [3] $end
$var wire 1 1! SW~combout [2] $end
$var wire 1 2! KEY~combout [3] $end
$var wire 1 3! KEY~combout [2] $end
$var wire 1 4! KEY~combout [1] $end
$var wire 1 5! KEY~combout [0] $end
$var wire 1 6! ctrl|current_state [1] $end
$var wire 1 7! ctrl|current_state [0] $end
$var wire 1 8! counter|count [3] $end
$var wire 1 9! counter|count [2] $end
$var wire 1 :! counter|count [1] $end
$var wire 1 ;! counter|count [0] $end
$var wire 1 <! sr|tmp_data [10] $end
$var wire 1 =! sr|tmp_data [9] $end
$var wire 1 >! sr|tmp_data [8] $end
$var wire 1 ?! sr|tmp_data [7] $end
$var wire 1 @! sr|tmp_data [6] $end
$var wire 1 A! sr|tmp_data [5] $end
$var wire 1 B! sr|tmp_data [4] $end
$var wire 1 C! sr|tmp_data [3] $end
$var wire 1 D! sr|tmp_data [2] $end
$var wire 1 E! sr|tmp_data [1] $end
$var wire 1 F! sr|tmp_data [0] $end
$var wire 1 G! baud|count [10] $end
$var wire 1 H! baud|count [9] $end
$var wire 1 I! baud|count [8] $end
$var wire 1 J! baud|count [7] $end
$var wire 1 K! baud|count [6] $end
$var wire 1 L! baud|count [5] $end
$var wire 1 M! baud|count [4] $end
$var wire 1 N! baud|count [3] $end
$var wire 1 O! baud|count [2] $end
$var wire 1 P! baud|count [1] $end
$var wire 1 Q! baud|count [0] $end
$upscope $end
$upscope $end
$enddefinitions $end
#0
$dumpvars
0!
b1xx1 "
b1010101 #
0*
1)
0(
0'
1&
0%
0$
01
10
0/
0.
1-
0,
0+
12
04
03
x5
06
17
x8
19
1:
1;
0<
0=
0>
0?
0@
0A
0B
0C
0D
0E
0F
1G
0H
0I
0J
0K
0L
0M
1N
0O
0P
1Q
0R
0S
1T
0U
0V
0W
1X
0Y
1Z
0[
1\
0]
1^
0_
0`
1a
0b
0c
0d
0e
0f
0g
1h
1i
0j
0k
0l
0m
1n
0o
0p
1q
0r
0s
0t
1u
0v
0w
0x
0y
0z
0{
1|
0}
0~
1!!
0"!
0#!
0$!
1%!
0&!
0'!
1(!
0)!
1*!
11!
00!
1/!
0.!
1-!
0,!
1+!
15!
z4!
z3!
12!
07!
06!
0;!
0:!
09!
08!
0F!
0E!
0D!
0C!
0B!
0A!
0@!
0?!
0>!
0=!
0<!
0Q!
0P!
0O!
0N!
0M!
0L!
0K!
0J!
0I!
0H!
0G!
$end
#10000
1!
1I
1J
05
1Q!
1K
0a
1L
#20000
0!
0I
0J
15
#30000
1!
1I
1J
05
0Q!
1P!
0K
1a
0^
0L
1^
1L
1_
0_
#40000
0!
0I
0J
15
#50000
1!
1I
1J
05
1Q!
1b
1K
0a
1]
0^
0L
1_
#60000
0!
0I
0J
15
#70000
1!
1I
1J
05
0Q!
0P!
0b
0K
1a
1^
1L
0]
0L
0_
#80000
0!
0I
0J
15
#90000
1!
1I
1J
05
1Q!
1K
0a
1L
#100000
0!
0I
0J
15
#110000
1!
1I
1J
05
0Q!
1P!
0K
1a
0^
0L
1^
1L
1_
0_
#120000
0!
0I
0J
15
#130000
1!
1I
1J
05
1Q!
1b
1K
0a
1]
0^
0L
1_
#140000
0!
0I
0J
15
#150000
1!
1I
1J
05
0Q!
0P!
0b
0K
1a
1^
1L
0]
0L
0_
#160000
0!
0I
0J
15
#170000
1!
1I
1J
05
1Q!
1K
0a
1L
#180000
0!
0I
0J
15
#190000
1!
1I
1J
05
0Q!
1P!
0K
1a
0^
0L
1^
1L
1_
0_
#200000
0!
0I
0J
15
#210000
1!
1I
1J
05
1Q!
1b
1K
0a
1]
0^
0L
1_
#220000
0!
0I
0J
15
#230000
1!
1I
1J
05
0Q!
0P!
0b
0K
1a
1^
1L
0]
0L
0_
#240000
b0xx1 "
0!
02!
0I
0J
15
1c
#250000
1!
1I
1J
05
1d
1Q!
1K
0a
1L
#260000
b1xx1 "
0!
12!
0I
0J
15
0c
#270000
1!
1I
1J
05
1e
0d
0Q!
1P!
1j
0h
1f
0K
1a
0^
0L
0i
1^
1L
1_
1k
0_
#280000
0!
0I
0J
15
#290000
1!
1I
1J
05
17!
1g
0e
1Q!
1y
1w
0u
0j
1H
0f
1b
1K
0a
14
1v
1t
0G
1C
1A
0k
1]
0^
0L
1_
#300000
0!
0I
0J
15
#310000
1!
1I
1J
05
1E!
1C!
16!
07!
0g
0Q!
0P!
1?!
1A!
1<!
1z
0y
0w
1u
1l
1i
1=
0b
0K
1a
1^
1L
13
04
1x
0v
0C
1B
0A
1@
0]
0L
0_
#320000
0!
0I
0J
15
#330000
1!
1I
1J
05
1Q!
1K
0a
1L
#340000
0!
0I
0J
15
#350000
1!
1I
1J
05
0Q!
1P!
0K
1a
0^
0L
1^
1L
1_
0_
#360000
0!
0I
0J
15
#370000
1!
1I
1J
05
1Q!
1b
1K
0a
1m
1]
0^
0L
1w
1r
0q
1p
1_
0r
#380000
0!
0I
0J
15
#390000
1!
1I
1J
05
1F!
0E!
1D!
0C!
1;!
0Q!
0P!
0?!
1@!
0A!
1B!
0z
1y
0x
0p
1o
0b
0K
1a
1^
1L
0B
1A
0@
1v
02
0m
0]
0L
0_
0w
1q
1p
0o
#400000
0!
0I
0J
15
#410000
1!
1I
1J
05
1Q!
1K
0a
1L
#420000
0!
0I
0J
15
#430000
1!
1I
1J
05
0Q!
1P!
0K
1a
0^
0L
1^
1L
1_
0_
#440000
0!
0I
0J
15
#450000
1!
1I
1J
05
1Q!
1b
1K
0a
1m
1]
0^
0L
1w
1r
0q
0p
1o
1_
0r
#460000
0!
0I
0J
15
#470000
1!
1I
1J
05
0F!
1E!
0D!
1C!
0;!
1:!
0Q!
0P!
0@!
1A!
0B!
1z
0y
1x
1p
0b
0K
1a
1^
1L
0A
1@
0v
12
0m
0]
0L
0_
0w
1q
0p
#480000
0!
0I
0J
15
#490000
1!
1I
1J
05
1Q!
1K
0a
1L
#500000
0!
0I
0J
15
#510000
1!
1I
1J
05
0Q!
1P!
0K
1a
0^
0L
1^
1L
1_
0_
#520000
0!
0I
0J
15
#530000
1!
1I
1J
05
1Q!
1b
1K
0a
1m
1]
0^
0L
1w
1r
0q
1p
1_
0r
#540000
0!
0I
0J
15
#550000
1!
1I
1J
05
1F!
0E!
1D!
0C!
1;!
0Q!
0P!
0A!
1B!
0z
1y
0x
1q
0p
0o
0b
0K
1a
1^
1L
0@
1v
02
1r
0m
0]
0L
0_
0w
0r
1p
1o
#560000
0!
0I
0J
15
#570000
1!
1I
1J
05
1Q!
1K
0a
1L
#580000
0!
0I
0J
15
#590000
1!
1I
1J
05
0Q!
1P!
0K
1a
0^
0L
1^
1L
1_
0_
#600000
0!
0I
0J
15
#610000
1!
1I
1J
05
1Q!
1b
1K
0a
1m
1]
0^
0L
1w
1r
0p
0o
1_
#620000
0!
0I
0J
15
#630000
1!
1I
1J
05
0F!
1E!
0D!
1C!
19!
0;!
0:!
0Q!
0P!
0B!
1z
0y
1x
0r
0q
1p
0b
0K
1a
1^
1L
0v
12
1r
0m
0]
0L
0_
0w
0r
1q
0p
1r
#640000
0!
0I
0J
15
#650000
1!
1I
1J
05
1Q!
1K
0a
1L
#660000
0!
0I
0J
15
#670000
1!
1I
1J
05
0Q!
1P!
0K
1a
0^
0L
1^
1L
1_
0_
#680000
0!
0I
0J
15
#690000
1!
1I
1J
05
1Q!
1b
1K
0a
1m
1]
0^
0L
1w
0r
0q
1p
1_
1r
#700000
0!
0I
0J
15
#710000
1!
1I
1J
05
1F!
0E!
1D!
0C!
1;!
0Q!
0P!
0z
1y
0x
0p
1o
0b
0K
1a
1^
1L
02
0m
0]
0L
0_
0w
0r
1q
1p
0o
1r
#720000
0!
0I
0J
15
#730000
1!
1I
1J
05
1Q!
1K
0a
1L
#740000
0!
0I
0J
15
#750000
1!
1I
1J
05
0Q!
1P!
0K
1a
0^
0L
1^
1L
1_
0_
#760000
0!
0I
0J
15
#770000
1!
1I
1J
05
1Q!
1b
1K
0a
1m
1]
0^
0L
1w
0r
0q
0p
1o
1_
1r
#780000
0!
0I
0J
15
#790000
1!
1I
1J
05
0F!
1E!
0D!
0;!
1:!
0Q!
0P!
1z
0y
1p
0b
0K
1a
1^
1L
12
0m
0]
0L
0_
0w
0r
1q
0p
1r
#800000
0!
0I
0J
15
#810000
1!
1I
1J
05
1Q!
1K
0a
1L
#820000
0!
0I
0J
15
#830000
1!
1I
1J
05
0Q!
1P!
0K
1a
0^
0L
1^
1L
1_
0_
#840000
0!
0I
0J
15
#850000
1!
1I
1J
05
1Q!
1b
1K
0a
1m
1]
0^
0L
1w
0r
0q
1p
1_
1r
#860000
0!
0I
0J
15
#870000
1!
1I
1J
05
1F!
0E!
1;!
0Q!
0P!
0z
1q
0p
0o
1>
0b
0K
1a
1^
1L
02
0r
1?
0m
0]
0L
0_
0w
1r
1p
1o
0?
#880000
0!
0I
0J
15
#890000
1!
1I
1J
05
1Q!
1K
0a
1L
#900000
0!
0I
0J
15
#910000
1!
1I
1J
05
0Q!
1P!
0K
1a
0^
0L
1^
1L
1_
0_
#920000
0!
0I
0J
15
#930000
1!
1I
1J
05
1Q!
1b
1K
0a
1m
1]
0^
0L
1w
0r
0p
0o
1?
1_
#940000
0!
0I
0J
15
#950000
1!
1I
1J
05
0F!
09!
0;!
0:!
0Q!
0P!
18!
1r
0q
1p
0b
0K
1a
1^
1L
12
0r
0m
0]
0L
0_
0w
1q
0p
#960000
0!
0I
0J
15
#970000
1!
1I
1J
05
1Q!
1K
0a
1L
#980000
0!
0I
0J
15
#990000
1!
1I
1J
05
0Q!
1P!
0K
1a
0^
0L
1^
1L
1_
0_
#1000000
0!
0I
0J
15
#1010000
1!
1I
1J
05
1Q!
1b
1K
0a
1m
1]
0^
0L
1w
1r
0q
1p
1_
0r
#1020000
0!
0I
0J
15
#1030000
1!
1I
1J
05
1;!
0Q!
0P!
0p
1o
0b
0K
1a
1^
1L
0m
0]
0L
0_
0w
1q
1p
0o
#1040000
0!
0I
0J
15
#1050000
1!
1I
1J
05
1Q!
1K
0a
1L
#1060000
0!
0I
0J
15
#1070000
1!
1I
1J
05
0Q!
1P!
0K
1a
0^
0L
1^
1L
1_
0_
#1080000
0!
0I
0J
15
#1090000
1!
1I
1J
05
1Q!
1b
1K
0a
1m
1]
0^
0L
1w
1r
0q
0p
1o
1_
0r
#1100000
0!
0I
0J
15
#1110000
1!
1I
1J
05
0;!
1:!
0Q!
0P!
1s
1p
0b
0K
1a
1^
1L
0t
0p
0n
0i
0m
0]
0L
0_
0o
0?
0w
1q
#1120000
0!
0I
0J
15
#1130000
1!
1I
1J
05
06!
0:!
1Q!
08!
0l
1h
0=
0s
0>
1K
0a
03
1i
1n
1L
#1140000
0!
0I
0J
15
#1150000
1!
1I
1J
05
0Q!
1P!
0K
1a
0^
0L
1^
1L
1_
0_
#1160000
0!
0I
0J
15
#1170000
1!
1I
1J
05
1Q!
1b
1K
0a
1]
0^
0L
1_
#1180000
0!
0I
0J
15
#1190000
1!
1I
1J
05
0Q!
0P!
0b
0K
1a
1^
1L
0]
0L
0_
#1200000
0!
0I
0J
15
#1210000
1!
1I
1J
05
1Q!
1K
0a
1L
#1220000
0!
0I
0J
15
#1230000
1!
1I
1J
05
0Q!
1P!
0K
1a
0^
0L
1^
1L
1_
0_
#1240000
0!
0I
0J
15
#1250000
1!
1I
1J
05
1Q!
1b
1K
0a
1]
0^
0L
1_
#1260000
0!
0I
0J
15
#1270000
1!
1I
1J
05
0Q!
0P!
0b
0K
1a
1^
1L
0]
0L
0_
#1280000
0!
0I
0J
15
#1290000
1!
1I
1J
05
1Q!
1K
0a
1L
#1300000
0!
0I
0J
15
#1310000
1!
1I
1J
05
0Q!
1P!
0K
1a
0^
0L
1^
1L
1_
0_
#1320000
0!
0I
0J
15
#1330000
1!
1I
1J
05
1Q!
1b
1K
0a
1]
0^
0L
1_
#1340000
0!
0I
0J
15
#1350000
1!
1I
1J
05
0Q!
0P!
0b
0K
1a
1^
1L
0]
0L
0_
#1360000
0!
0I
0J
15
#1370000
1!
1I
1J
05
1Q!
1K
0a
1L
#1380000
0!
0I
0J
15
#1390000
1!
1I
1J
05
0Q!
1P!
0K
1a
0^
0L
1^
1L
1_
0_
#1400000
0!
0I
0J
15
#1410000
1!
1I
1J
05
1Q!
1b
1K
0a
1]
0^
0L
1_
#1420000
0!
0I
0J
15
#1430000
1!
1I
1J
05
0Q!
0P!
0b
0K
1a
1^
1L
0]
0L
0_
#1440000
0!
0I
0J
15
#1450000
1!
1I
1J
05
1Q!
1K
0a
1L
#1460000
0!
0I
0J
15
#1470000
1!
1I
1J
05
0Q!
1P!
0K
1a
0^
0L
1^
1L
1_
0_
#1480000
0!
0I
0J
15
#1490000
1!
1I
1J
05
1Q!
1b
1K
0a
1]
0^
0L
1_
#1500000
0!
0I
0J
15
#1510000
1!
1I
1J
05
0Q!
0P!
0b
0K
1a
1^
1L
0]
0L
0_
#1520000
0!
0I
0J
15
#1530000
1!
1I
1J
05
1Q!
1K
0a
1L
#1540000
0!
0I
0J
15
#1550000
1!
1I
1J
05
0Q!
1P!
0K
1a
0^
0L
1^
1L
1_
0_
#1560000
0!
0I
0J
15
#1570000
1!
1I
1J
05
1Q!
1b
1K
0a
1]
0^
0L
1_
#1580000
0!
0I
0J
15
#1590000
1!
1I
1J
05
0Q!
0P!
0b
0K
1a
1^
1L
0]
0L
0_
#1600000
0!
0I
0J
15
#1610000
1!
1I
1J
05
1Q!
1K
0a
1L
#1620000
0!
0I
0J
15
#1630000
1!
1I
1J
05
0Q!
1P!
0K
1a
0^
0L
1^
1L
1_
0_
#1640000
0!
0I
0J
15
#1650000
1!
1I
1J
05
1Q!
1b
1K
0a
1]
0^
0L
1_
#1660000
0!
0I
0J
15
#1670000
1!
1I
1J
05
0Q!
0P!
0b
0K
1a
1^
1L
0]
0L
0_
#1680000
0!
0I
0J
15
#1690000
1!
1I
1J
05
1Q!
1K
0a
1L
#1700000
0!
0I
0J
15
#1710000
1!
1I
1J
05
0Q!
1P!
0K
1a
0^
0L
1^
1L
1_
0_
#1720000
0!
0I
0J
15
#1730000
1!
1I
1J
05
1Q!
1b
1K
0a
1]
0^
0L
1_
#1740000
0!
0I
0J
15
#1750000
1!
1I
1J
05
0Q!
0P!
0b
0K
1a
1^
1L
0]
0L
0_
#1760000
0!
0I
0J
15
#1770000
1!
1I
1J
05
1Q!
1K
0a
1L
#1780000
0!
0I
0J
15
#1790000
1!
1I
1J
05
0Q!
1P!
0K
1a
0^
0L
1^
1L
1_
0_
#1800000
0!
0I
0J
15
#1810000
1!
1I
1J
05
1Q!
1b
1K
0a
1]
0^
0L
1_
#1820000
0!
0I
0J
15
#1830000
1!
1I
1J
05
0Q!
0P!
0b
0K
1a
1^
1L
0]
0L
0_
#1840000
0!
0I
0J
15
#1850000
1!
1I
1J
05
1Q!
1K
0a
1L
#1860000
0!
0I
0J
15
#1870000
1!
1I
1J
05
0Q!
1P!
0K
1a
0^
0L
1^
1L
1_
0_
#1880000
0!
0I
0J
15
#1890000
1!
1I
1J
05
1Q!
1b
1K
0a
1]
0^
0L
1_
#1900000
0!
0I
0J
15
#1910000
1!
1I
1J
05
0Q!
0P!
0b
0K
1a
1^
1L
0]
0L
0_
#1920000
0!
0I
0J
15
#1930000
1!
1I
1J
05
1Q!
1K
0a
1L
#1940000
0!
0I
0J
15
#1950000
1!
1I
1J
05
0Q!
1P!
0K
1a
0^
0L
1^
1L
1_
0_
#1960000
0!
0I
0J
15
#1970000
1!
1I
1J
05
1Q!
1b
1K
0a
1]
0^
0L
1_
#1980000
0!
0I
0J
15
#1990000
1!
1I
1J
05
0Q!
0P!
0b
0K
1a
1^
1L
0]
0L
0_
#2000000
0!
0I
0J
15
#2010000
1!
1I
1J
05
1Q!
1K
0a
1L
#2020000
0!
0I
0J
15
#2030000
1!
1I
1J
05
0Q!
1P!
0K
1a
0^
0L
1^
1L
1_
0_
#2040000
0!
0I
0J
15
#2050000
1!
1I
1J
05
1Q!
1b
1K
0a
1]
0^
0L
1_
#2060000
0!
0I
0J
15
#2070000
1!
1I
1J
05
0Q!
0P!
0b
0K
1a
1^
1L
0]
0L
0_
#2080000
0!
0I
0J
15
#2090000
1!
1I
1J
05
1Q!
1K
0a
1L
#2100000
0!
0I
0J
15
#2110000
1!
1I
1J
05
0Q!
1P!
0K
1a
0^
0L
1^
1L
1_
0_
#2120000
0!
0I
0J
15
#2130000
1!
1I
1J
05
1Q!
1b
1K
0a
1]
0^
0L
1_
#2140000
0!
0I
0J
15
#2150000
1!
1I
1J
05
0Q!
0P!
0b
0K
1a
1^
1L
0]
0L
0_
#2160000
0!
0I
0J
15
#2170000
1!
1I
1J
05
1Q!
1K
0a
1L
#2180000
0!
0I
0J
15
#2190000
1!
1I
1J
05
0Q!
1P!
0K
1a
0^
0L
1^
1L
1_
0_
#2200000
0!
0I
0J
15
#2210000
1!
1I
1J
05
1Q!
1b
1K
0a
1]
0^
0L
1_
#2220000
0!
0I
0J
15
#2230000
1!
1I
1J
05
0Q!
0P!
0b
0K
1a
1^
1L
0]
0L
0_
#2240000
0!
0I
0J
15
#2250000
1!
1I
1J
05
1Q!
1K
0a
1L
#2260000
0!
0I
0J
15
#2270000
1!
1I
1J
05
0Q!
1P!
0K
1a
0^
0L
1^
1L
1_
0_
#2280000
0!
0I
0J
15
#2290000
1!
1I
1J
05
1Q!
1b
1K
0a
1]
0^
0L
1_
#2300000
0!
0I
0J
15
#2310000
1!
1I
1J
05
0Q!
0P!
0b
0K
1a
1^
1L
0]
0L
0_
#2320000
0!
0I
0J
15
#2330000
1!
1I
1J
05
1Q!
1K
0a
1L
#2340000
0!
0I
0J
15
#2350000
1!
1I
1J
05
0Q!
1P!
0K
1a
0^
0L
1^
1L
1_
0_
#2360000
0!
0I
0J
15
#2370000
1!
1I
1J
05
1Q!
1b
1K
0a
1]
0^
0L
1_
#2380000
0!
0I
0J
15
#2390000
1!
1I
1J
05
0Q!
0P!
0b
0K
1a
1^
1L
0]
0L
0_
#2400000
0!
0I
0J
15
#2410000
1!
1I
1J
05
1Q!
1K
0a
1L
#2420000
0!
0I
0J
15
#2430000
1!
1I
1J
05
0Q!
1P!
0K
1a
0^
0L
1^
1L
1_
0_
#2440000
0!
0I
0J
15
#2450000
1!
1I
1J
05
1Q!
1b
1K
0a
1]
0^
0L
1_
#2460000
0!
0I
0J
15
#2470000
1!
1I
1J
05
0Q!
0P!
0b
0K
1a
1^
1L
0]
0L
0_
#2480000
0!
0I
0J
15
#2490000
1!
1I
1J
05
1Q!
1K
0a
1L
#2500000
0!
0I
0J
15
#2510000
1!
1I
1J
05
0Q!
1P!
0K
1a
0^
0L
1^
1L
1_
0_
#2520000
0!
0I
0J
15
#2530000
1!
1I
1J
05
1Q!
1b
1K
0a
1]
0^
0L
1_
#2540000
0!
0I
0J
15
#2550000
1!
1I
1J
05
0Q!
0P!
0b
0K
1a
1^
1L
0]
0L
0_
#2560000
0!
0I
0J
15
#2570000
1!
1I
1J
05
1Q!
1K
0a
1L
#2580000
0!
0I
0J
15
#2590000
1!
1I
1J
05
0Q!
1P!
0K
1a
0^
0L
1^
1L
1_
0_
#2600000
0!
0I
0J
15
#2610000
1!
1I
1J
05
1Q!
1b
1K
0a
1]
0^
0L
1_
#2620000
0!
0I
0J
15
#2630000
1!
1I
1J
05
0Q!
0P!
0b
0K
1a
1^
1L
0]
0L
0_
#2640000
0!
0I
0J
15
#2650000
1!
1I
1J
05
1Q!
1K
0a
1L
#2660000
0!
0I
0J
15
#2670000
1!
1I
1J
05
0Q!
1P!
0K
1a
0^
0L
1^
1L
1_
0_
#2680000
0!
0I
0J
15
#2690000
1!
1I
1J
05
1Q!
1b
1K
0a
1]
0^
0L
1_
#2700000
0!
0I
0J
15
#2710000
1!
1I
1J
05
0Q!
0P!
0b
0K
1a
1^
1L
0]
0L
0_
#2720000
0!
0I
0J
15
#2730000
1!
1I
1J
05
1Q!
1K
0a
1L
#2740000
0!
0I
0J
15
#2750000
1!
1I
1J
05
0Q!
1P!
0K
1a
0^
0L
1^
1L
1_
0_
#2760000
0!
0I
0J
15
#2770000
1!
1I
1J
05
1Q!
1b
1K
0a
1]
0^
0L
1_
#2780000
0!
0I
0J
15
#2790000
1!
1I
1J
05
0Q!
0P!
0b
0K
1a
1^
1L
0]
0L
0_
#2800000
0!
0I
0J
15
#2810000
1!
1I
1J
05
1Q!
1K
0a
1L
#2820000
0!
0I
0J
15
#2830000
1!
1I
1J
05
0Q!
1P!
0K
1a
0^
0L
1^
1L
1_
0_
#2840000
0!
0I
0J
15
#2850000
1!
1I
1J
05
1Q!
1b
1K
0a
1]
0^
0L
1_
#2860000
0!
0I
0J
15
#2870000
1!
1I
1J
05
0Q!
0P!
0b
0K
1a
1^
1L
0]
0L
0_
#2880000
0!
0I
0J
15
#2890000
1!
1I
1J
05
1Q!
1K
0a
1L
#2900000
0!
0I
0J
15
#2910000
1!
1I
1J
05
0Q!
1P!
0K
1a
0^
0L
1^
1L
1_
0_
#2920000
0!
0I
0J
15
#2930000
1!
1I
1J
05
1Q!
1b
1K
0a
1]
0^
0L
1_
#2940000
0!
0I
0J
15
#2950000
1!
1I
1J
05
0Q!
0P!
0b
0K
1a
1^
1L
0]
0L
0_
#2960000
0!
0I
0J
15
#2970000
1!
1I
1J
05
1Q!
1K
0a
1L
#2980000
0!
0I
0J
15
#2990000
1!
1I
1J
05
0Q!
1P!
0K
1a
0^
0L
1^
1L
1_
0_
#3000000
0!
0I
0J
15
#3010000
1!
1I
1J
05
1Q!
1b
1K
0a
1]
0^
0L
1_
#3020000
0!
0I
0J
15
#3030000
1!
1I
1J
05
0Q!
0P!
0b
0K
1a
1^
1L
0]
0L
0_
#3040000
0!
0I
0J
15
#3050000
1!
1I
1J
05
1Q!
1K
0a
1L
#3060000
0!
0I
0J
15
#3070000
1!
1I
1J
05
0Q!
1P!
0K
1a
0^
0L
1^
1L
1_
0_
#3080000
0!
0I
0J
15
#3090000
1!
1I
1J
05
1Q!
1b
1K
0a
1]
0^
0L
1_
#3100000
0!
0I
0J
15
#3110000
1!
1I
1J
05
0Q!
0P!
0b
0K
1a
1^
1L
0]
0L
0_
#3120000
0!
0I
0J
15
#3130000
1!
1I
1J
05
1Q!
1K
0a
1L
#3140000
0!
0I
0J
15
#3150000
1!
1I
1J
05
0Q!
1P!
0K
1a
0^
0L
1^
1L
1_
0_
#3160000
0!
0I
0J
15
#3170000
1!
1I
1J
05
1Q!
1b
1K
0a
1]
0^
0L
1_
#3180000
0!
0I
0J
15
#3190000
1!
1I
1J
05
0Q!
0P!
0b
0K
1a
1^
1L
0]
0L
0_
#3200000
0!
0I
0J
15
#3210000
1!
1I
1J
05
1Q!
1K
0a
1L
#3220000
0!
0I
0J
15
#3230000
1!
1I
1J
05
0Q!
1P!
0K
1a
0^
0L
1^
1L
1_
0_
#3240000
0!
0I
0J
15
#3250000
1!
1I
1J
05
1Q!
1b
1K
0a
1]
0^
0L
1_
#3260000
0!
0I
0J
15
#3270000
1!
1I
1J
05
0Q!
0P!
0b
0K
1a
1^
1L
0]
0L
0_
#3280000
0!
0I
0J
15
#3290000
1!
1I
1J
05
1Q!
1K
0a
1L
#3300000
0!
0I
0J
15
#3310000
1!
1I
1J
05
0Q!
1P!
0K
1a
0^
0L
1^
1L
1_
0_
#3320000
0!
0I
0J
15
#3330000
1!
1I
1J
05
1Q!
1b
1K
0a
1]
0^
0L
1_
#3340000
0!
0I
0J
15
#3350000
1!
1I
1J
05
0Q!
0P!
0b
0K
1a
1^
1L
0]
0L
0_
#3360000
0!
0I
0J
15
#3370000
1!
1I
1J
05
1Q!
1K
0a
1L
#3380000
0!
0I
0J
15
#3390000
1!
1I
1J
05
0Q!
1P!
0K
1a
0^
0L
1^
1L
1_
0_
#3400000
0!
0I
0J
15
#3410000
1!
1I
1J
05
1Q!
1b
1K
0a
1]
0^
0L
1_
#3420000
0!
0I
0J
15
#3430000
1!
1I
1J
05
0Q!
0P!
0b
0K
1a
1^
1L
0]
0L
0_
#3440000
0!
0I
0J
15
#3450000
1!
1I
1J
05
1Q!
1K
0a
1L
#3460000
0!
0I
0J
15
#3470000
1!
1I
1J
05
0Q!
1P!
0K
1a
0^
0L
1^
1L
1_
0_
#3480000
0!
0I
0J
15
#3490000
1!
1I
1J
05
1Q!
1b
1K
0a
1]
0^
0L
1_
#3500000
0!
0I
0J
15
#3510000
1!
1I
1J
05
0Q!
0P!
0b
0K
1a
1^
1L
0]
0L
0_
