tx_uart/simulation/qsim/tx_uart.msim.vcd
$comment
	File created using the following command:
		vcd file tx_uart.msim.vcd -direction
$end
$date
	Tue Nov 21 15:41:07 2023
$end
$version
	ModelSim Version 10.1d
$end
$timescale
	1ps
$end
$scope module tx_uart_vlg_vec_tst $end
$var reg 1 ! CLOCK_50 $end
$var reg 1 " KEY0 $end
$var reg 1 # KEY3 $end
$var reg 7 $ SW [8:2] $end
$var wire 1 % ctrl_state [1] $end
$var wire 1 & ctrl_state [0] $end
$var wire 1 ' HEX4 [6] $end
$var wire 1 ( HEX4 [5] $end
$var wire 1 ) HEX4 [4] $end
$var wire 1 * HEX4 [3] $end
$var wire 1 + HEX4 [2] $end
$var wire 1 , HEX4 [1] $end
$var wire 1 - HEX4 [0] $end
$var wire 1 . HEX5 [6] $end
$var wire 1 / HEX5 [5] $end
$var wire 1 0 HEX5 [4] $end
$var wire 1 1 HEX5 [3] $end
$var wire 1 2 HEX5 [2] $end
$var wire 1 3 HEX5 [1] $end
$var wire 1 4 HEX5 [0] $end
$var wire 1 5 UART_TXD $end
$var wire 1 6 sampler $end
$scope module i1 $end
$var wire 1 7 gnd $end
$var wire 1 8 vcc $end
$var wire 1 9 unknown $end
$var tri1 1 : devclrn $end
$var tri1 1 ; devpor $end
$var tri1 1 < devoe $end
$var wire 1 = inst3|count[1]~14_combout $end
$var wire 1 > inst3|count[7]~26_combout $end
$var wire 1 ? inst5|count~2_combout $end
$var wire 1 @ inst5|count~3_combout $end
$var wire 1 A inst6|tmp_data~8_combout $end
$var wire 1 B inst6|tmp_data~9_combout $end
$var wire 1 C inst1|WideXnor0~0_combout $end
$var wire 1 D inst1|WideXnor0~1_combout $end
$var wire 1 E inst6|tmp_data~10_combout $end
$var wire 1 F inst6|tmp_data~11_combout $end
$var wire 1 G CLOCK_50~combout $end
$var wire 1 H CLOCK_50~clkctrl_outclk $end
$var wire 1 I KEY0~combout $end
$var wire 1 J inst3|count[0]~12 $end
$var wire 1 K inst3|count[1]~15 $end
$var wire 1 L inst3|count[2]~16_combout $end
$var wire 1 M inst3|count[3]~18_combout $end
$var wire 1 N inst3|count[0]~11_combout $end
$var wire 1 O inst3|Equal0~0_combout $end
$var wire 1 P inst3|count[5]~22_combout $end
$var wire 1 Q inst3|Equal0~1_combout $end
$var wire 1 R inst3|count[4]~13_combout $end
$var wire 1 S inst3|count[2]~17 $end
$var wire 1 T inst3|count[3]~19 $end
$var wire 1 U inst3|count[4]~20_combout $end
$var wire 1 V inst3|count[4]~21 $end
$var wire 1 W inst3|count[5]~23 $end
$var wire 1 X inst3|count[6]~24_combout $end
$var wire 1 Y inst3|count[6]~25 $end
$var wire 1 Z inst3|count[7]~27 $end
$var wire 1 [ inst3|count[8]~29 $end
$var wire 1 \ inst3|count[9]~30_combout $end
$var wire 1 ] inst3|count[9]~31 $end
$var wire 1 ^ inst3|count[10]~32_combout $end
$var wire 1 _ inst3|count[8]~28_combout $end
$var wire 1 ` inst3|Equal0~2_combout $end
$var wire 1 a inst3|baud_output~0_combout $end
$var wire 1 b inst3|baud_output~regout $end
$var wire 1 c KEY3~combout $end
$var wire 1 d inst|current_state~0_combout $end
$var wire 1 e inst|current_state~regout $end
$var wire 1 f inst|pulser_out~0_combout $end
$var wire 1 g inst|pulser_out~regout $end
$var wire 1 h inst4|current_state[0]~1_combout $end
$var wire 1 i inst4|ctrl_sr_shift~0_combout $end
$var wire 1 j inst4|ctrl_sr_shift~regout $end
$var wire 1 k inst5|count~4_combout $end
$var wire 1 l inst5|count[0]~1_combout $end
$var wire 1 m inst5|count~5_combout $end
$var wire 1 n inst5|count~0_combout $end
$var wire 1 o inst5|count_out~0_combout $end
$var wire 1 p inst5|count_out~1_combout $end
$var wire 1 q inst5|count_out~regout $end
$var wire 1 r inst4|current_state[1]~0_combout $end
$var wire 1 s inst4|Mux0~0_combout $end
$var wire 1 t inst4|ctrl_sr_load~regout $end
$var wire 1 u inst6|tmp_data~7_combout $end
$var wire 1 v inst6|tmp_data[0]~1_combout $end
$var wire 1 w inst6|tmp_data~6_combout $end
$var wire 1 x inst6|tmp_data~5_combout $end
$var wire 1 y inst6|tmp_data~4_combout $end
$var wire 1 z inst6|tmp_data~3_combout $end
$var wire 1 { inst6|tmp_data~2_combout $end
$var wire 1 | inst6|tmp_data~0_combout $end
$var wire 1 } inst6|tx_sr_out~feeder_combout $end
$var wire 1 ~ inst6|tx_sr_out~regout $end
$var wire 1 !! inst2|WideOr4~0_combout $end
$var wire 1 "! inst2|WideOr5~0_combout $end
$var wire 1 #! inst2|WideOr6~0_combout $end
$var wire 1 $! inst2|WideOr7~0_combout $end
$var wire 1 %! inst2|WideOr8~0_combout $end
$var wire 1 &! inst2|WideOr9~0_combout $end
$var wire 1 '! inst2|WideOr10~0_combout $end
$var wire 1 (! inst2|WideOr0~0_combout $end
$var wire 1 )! inst2|WideOr1~0_combout $end
$var wire 1 *! inst2|WideOr2~0_combout $end
$var wire 1 +! inst2|WideOr3~0_combout $end
$var wire 1 ,! inst2|Decoder0~0_combout $end
$var wire 1 -! inst2|seven_seg_1[1]~0_combout $end
$var wire 1 .! inst2|seven_seg_1[0]~1_combout $end
$var wire 1 /! inst4|current_state [1] $end
$var wire 1 0! inst4|current_state [0] $end
$var wire 1 1! inst6|tmp_data [10] $end
$var wire 1 2! inst6|tmp_data [9] $end
$var wire 1 3! inst6|tmp_data [8] $end
$var wire 1 4! inst6|tmp_data [7] $end
$var wire 1 5! inst6|tmp_data [6] $end
$var wire 1 6! inst6|tmp_data [5] $end
$var wire 1 7! inst6|tmp_data [4] $end
$var wire 1 8! inst6|tmp_data [3] $end
$var wire 1 9! inst6|tmp_data [2] $end
$var wire 1 :! inst6|tmp_data [1] $end
$var wire 1 ;! inst6|tmp_data [0] $end
$var wire 1 <! inst3|count [10] $end
$var wire 1 =! inst3|count [9] $end
$var wire 1 >! inst3|count [8] $end
$var wire 1 ?! inst3|count [7] $end
$var wire 1 @! inst3|count [6] $end
$var wire 1 A! inst3|count [5] $end
$var wire 1 B! inst3|count [4] $end
$var wire 1 C! inst3|count [3] $end
$var wire 1 D! inst3|count [2] $end
$var wire 1 E! inst3|count [1] $end
$var wire 1 F! inst3|count [0] $end
$var wire 1 G! inst5|count [3] $end
$var wire 1 H! inst5|count [2] $end
$var wire 1 I! inst5|count [1] $end
$var wire 1 J! inst5|count [0] $end
$var wire 1 K! SW~combout [8] $end
$var wire 1 L! SW~combout [7] $end
$var wire 1 M! SW~combout [6] $end
$var wire 1 N! SW~combout [5] $end
$var wire 1 O! SW~combout [4] $end
$var wire 1 P! SW~combout [3] $end
$var wire 1 Q! SW~combout [2] $end
$upscope $end
$upscope $end
$enddefinitions $end
#0
$dumpvars
0!
1"
1#
b1010101 $
0&
0%
0-
1,
0+
0*
1)
0(
0'
04
13
02
01
10
0/
0.
05
x6
07
18
x9
1:
1;
1<
0=
0>
1?
0@
0A
0B
0C
0D
0E
0F
0G
0H
1I
0J
1K
0L
0M
1N
1O
0P
1Q
0R
0S
1T
0U
0V
1W
0X
0Y
1Z
0[
0\
1]
0^
0_
0`
0a
0b
1c
0d
0e
0f
0g
0h
0i
0j
1k
0l
0m
0n
0o
0p
0q
0r
0s
0t
0u
0v
0w
0x
0y
0z
0{
0|
0}
0~
1!!
0"!
1#!
0$!
0%!
1&!
0'!
0(!
0)!
1*!
0+!
0,!
0-!
0.!
00!
0/!
0;!
0:!
09!
08!
07!
06!
05!
04!
03!
02!
01!
0F!
0E!
0D!
0C!
0B!
0A!
0@!
0?!
0>!
0=!
0<!
0J!
0I!
0H!
0G!
1Q!
0P!
1O!
0N!
1M!
0L!
1K!
$end
#10000
1!
1G
1H
06
1F!
1J
0N
1=
#20000
0!
0G
0H
16
#30000
1!
1G
1H
06
0F!
1E!
0J
1N
0K
0=
1K
1=
1L
0L
#40000
0!
0G
0H
16
#50000
1!
1G
1H
06
1F!
1J
0N
0K
0=
1L
#60000
0!
0G
0H
16
#70000
1!
1G
1H
06
1D!
0F!
0E!
0O
1S
0L
0J
1N
1K
1=
1M
0=
0S
1L
0M
#80000
0!
0G
0H
16
#90000
1!
1G
1H
06
1F!
1O
1J
0N
1=
#100000
0!
0G
0H
16
#110000
1!
1G
1H
06
0F!
1E!
0J
1N
0K
0=
1K
1=
1S
0L
0S
1L
1M
0M
#120000
0!
0G
0H
16
#130000
1!
1G
1H
06
1F!
1J
0N
0K
0=
1S
0L
1M
#140000
0!
0G
0H
16
#150000
1!
1G
1H
06
0D!
0F!
1C!
0E!
0S
1L
0J
1N
0T
0M
1K
1=
1T
1M
0=
1U
0L
0U
#160000
0!
0G
0H
16
#170000
1!
1G
1H
06
1F!
1J
0N
1=
#180000
0!
0G
0H
16
#190000
1!
1G
1H
06
0F!
1E!
0J
1N
0K
0=
1K
1=
1L
0L
#200000
0!
0G
0H
16
#210000
1!
1G
1H
06
1F!
1J
0N
0K
0=
1L
#220000
0!
0G
0H
16
#230000
1!
1G
1H
06
1D!
0F!
0E!
1S
0L
0J
1N
1K
1=
0T
0M
0=
0S
1L
1U
1T
1M
0U
#240000
0!
0G
0H
16
#250000
1!
1G
1H
06
1F!
1J
0N
1=
#260000
0!
0G
0H
16
#270000
1!
1G
1H
06
0F!
1E!
0J
1N
0K
0=
1K
1=
1S
0L
0S
1L
0T
0M
1T
1M
1U
0U
#280000
0!
0G
0H
16
#290000
1!
1G
1H
06
1F!
1J
0N
0K
0=
1S
0L
0T
0M
1U
#300000
0!
0G
0H
16
#310000
1!
1G
1H
06
1B!
0D!
0F!
0C!
0E!
1V
0U
0S
1L
0J
1N
1T
1M
1K
1=
1P
0M
0=
0V
1U
0L
0P
#320000
0!
0G
0H
16
#330000
1!
1G
1H
06
1F!
1J
0N
1=
#340000
0!
0G
0H
16
#350000
1!
1G
1H
06
0F!
1E!
0J
1N
0K
0=
1K
1=
1L
0L
#360000
0!
0G
0H
16
#370000
1!
1G
1H
06
1F!
1J
0N
0K
0=
1L
#380000
0!
0G
0H
16
#390000
1!
1G
1H
06
1D!
0F!
0E!
0O
1S
0L
0J
1N
1K
1=
1M
0=
0S
1L
0M
#400000
0!
0G
0H
16
#410000
1!
1G
1H
06
1F!
1O
1J
0N
1=
#420000
0!
0G
0H
16
#430000
1!
1G
1H
06
0F!
1E!
0J
1N
0K
0=
1K
1=
1S
0L
0S
1L
1M
0M
#440000
0!
0G
0H
16
#450000
1!
1G
1H
06
1F!
1J
0N
0K
0=
1S
0L
1M
#460000
0!
0G
0H
16
#470000
1!
1G
1H
06
0D!
0F!
1C!
0E!
0S
1L
0J
1N
0T
0M
1K
1=
1T
1M
0=
1V
0U
0L
0V
1U
1P
0P
#480000
0!
0G
0H
16
#490000
1!
1G
1H
06
1F!
1J
0N
1=
#500000
0!
0G
0H
16
#510000
1!
1G
1H
06
0F!
1E!
0J
1N
0K
0=
1K
1=
1L
0L
#520000
0!
0G
0H
16
#530000
1!
1G
1H
06
1F!
1J
0N
0K
0=
1L
#540000
0!
0G
0H
16
#550000
1!
1G
1H
06
1D!
0F!
0E!
1S
0L
0J
1N
1K
1=
0T
0M
0=
0S
1L
1V
0U
1T
1M
1P
0V
1U
0P
#560000
0!
0G
0H
16
#570000
1!
1G
1H
06
1F!
1J
0N
1=
#580000
0!
0G
0H
16
#590000
1!
1G
1H
06
0F!
1E!
0J
1N
0K
0=
1K
1=
1S
0L
0S
1L
0T
0M
1T
1M
1V
0U
0V
1U
1P
0P
#600000
0!
0G
0H
16
#610000
1!
1G
1H
06
1F!
1J
0N
0K
0=
1S
0L
0T
0M
1V
0U
1P
#620000
0!
0G
0H
16
#630000
1!
1G
1H
06
0B!
0D!
1A!
0F!
0C!
0E!
0V
1U
0S
1L
0W
0P
0J
1N
1T
1M
1K
1=
1W
1P
0M
1X
0=
0U
0L
0X
#640000
0!
0G
0H
16
#650000
1!
1G
1H
06
1F!
1J
0N
1=
#660000
0!
0G
0H
16
#670000
1!
1G
1H
06
0F!
1E!
0J
1N
0K
0=
1K
1=
1L
0L
#680000
0!
0G
0H
16
#690000
1!
1G
1H
06
1F!
1J
0N
0K
0=
1L
#700000
0!
0G
0H
16
#710000
1!
1G
1H
06
1D!
0F!
0E!
0O
1S
0L
0J
1N
1K
1=
1M
0=
0S
1L
0M
#720000
0!
0G
0H
16
#730000
1!
1G
1H
06
1F!
1O
1J
0N
1=
#740000
0!
0G
0H
16
#750000
1!
1G
1H
06
0F!
1E!
0J
1N
0K
0=
1K
1=
1S
0L
0S
1L
1M
0M
#760000
0!
0G
0H
16
#770000
1!
1G
1H
06
1F!
1J
0N
0K
0=
1S
0L
1M
#780000
0!
0G
0H
16
#790000
1!
1G
1H
06
0D!
0F!
1C!
0E!
0S
1L
0J
1N
0T
0M
1K
1=
1T
1M
0=
1U
0L
0U
#800000
0!
0G
0H
16
#810000
1!
1G
1H
06
1F!
1J
0N
1=
#820000
0!
0G
0H
16
#830000
1!
1G
1H
06
0F!
1E!
0J
1N
0K
0=
1K
1=
1L
0L
#840000
0!
0G
0H
16
#850000
1!
1G
1H
06
1F!
1J
0N
0K
0=
1L
#860000
0!
0G
0H
16
#870000
1!
1G
1H
06
1D!
0F!
0E!
1S
0L
0J
1N
1K
1=
0T
0M
0=
0S
1L
1U
1T
1M
0U
#880000
0!
0G
0H
16
#890000
1!
1G
1H
06
1F!
1J
0N
1=
#900000
0!
0G
0H
16
#910000
1!
1G
1H
06
0F!
1E!
0J
1N
0K
0=
1K
1=
1S
0L
0S
1L
0T
0M
1T
1M
1U
0U
#920000
0!
0G
0H
16
#930000
1!
1G
1H
06
1F!
1J
0N
0K
0=
1S
0L
0T
0M
1U
#940000
0!
0G
0H
16
#950000
1!
1G
1H
06
1B!
0D!
0F!
0C!
0E!
1V
0U
0S
1L
0J
1N
1T
1M
1K
1=
0W
0P
0M
0=
0V
1U
0L
1X
1W
1P
0X
#960000
0!
0G
0H
16
#970000
1!
1G
1H
06
1F!
1J
0N
1=
#980000
0!
0G
0H
16
#990000
1!
1G
1H
06
0F!
1E!
0J
1N
0K
0=
1K
1=
1L
0L
#1000000
0!
0G
0H
16
#1010000
1!
1G
1H
06
1F!
1J
0N
0K
0=
1L
#1020000
0!
0G
0H
16
#1030000
1!
1G
1H
06
1D!
0F!
0E!
0O
1S
0L
0J
1N
1K
1=
1M
0=
0S
1L
0M
#1040000
0!
0G
0H
16
#1050000
1!
1G
1H
06
1F!
1O
1J
0N
1=
#1060000
0!
0G
0H
16
#1070000
1!
1G
1H
06
0F!
1E!
0J
1N
0K
0=
1K
1=
1S
0L
0S
1L
1M
0M
#1080000
0!
0G
0H
16
#1090000
1!
1G
1H
06
1F!
1J
0N
0K
0=
1S
0L
1M
#1100000
0!
0G
0H
16
#1110000
1!
1G
1H
06
0D!
0F!
1C!
0E!
0S
1L
0J
1N
0T
0M
1K
1=
1T
1M
0=
1V
0U
0L
0V
1U
0W
0P
1W
1P
1X
0X
#1120000
0!
0G
0H
16
#1130000
1!
1G
1H
06
1F!
1J
0N
1=
#1140000
0!
0G
0H
16
#1150000
1!
1G
1H
06
0F!
1E!
0J
1N
0K
0=
1K
1=
1L
0L
#1160000
0!
0G
0H
16
#1170000
1!
1G
1H
06
1F!
1J
0N
0K
0=
1L
#1180000
0!
0G
0H
16
#1190000
1!
1G
1H
06
1D!
0F!
0E!
1S
0L
0J
1N
1K
1=
0T
0M
0=
0S
1L
1V
0U
1T
1M
0W
0P
0V
1U
1X
1W
1P
0X
#1200000
0!
0G
0H
16
#1210000
1!
1G
1H
06
1F!
1J
0N
1=
#1220000
0!
0G
0H
16
#1230000
1!
1G
1H
06
0F!
1E!
0J
1N
0K
0=
1K
1=
1S
0L
0S
1L
0T
0M
1T
1M
1V
0U
0V
1U
0W
0P
1W
1P
1X
0X
#1240000
0!
0G
0H
16
#1250000
1!
1G
1H
06
1F!
1J
0N
0K
0=
1S
0L
0T
0M
1V
0U
0W
0P
1X
#1260000
0!
0G
0H
16
#1270000
1!
1G
1H
06
1@!
0B!
0D!
0A!
0F!
0C!
0E!
1Y
0X
0V
1U
0S
1L
1W
1P
0J
1N
1T
1M
1K
1=
1>
0P
0M
0Y
1X
0=
0U
0L
0>
#1280000
0!
0G
0H
16
#1290000
1!
1G
1H
06
1F!
1J
0N
1=
#1300000
0!
0G
0H
16
#1310000
1!
1G
1H
06
0F!
1E!
0J
1N
0K
0=
1K
1=
1L
0L
#1320000
0!
0G
0H
16
#1330000
1!
1G
1H
06
1F!
1J
0N
0K
0=
1L
#1340000
0!
0G
0H
16
#1350000
1!
1G
1H
06
1D!
0F!
0E!
0O
1S
0L
0J
1N
1K
1=
1M
0=
0S
1L
0M
#1360000
0!
0G
0H
16
#1370000
1!
1G
1H
06
1F!
1O
1J
0N
1=
#1380000
0!
0G
0H
16
#1390000
1!
1G
1H
06
0F!
1E!
0J
1N
0K
0=
1K
1=
1S
0L
0S
1L
1M
0M
#1400000
0!
0G
0H
16
#1410000
1!
1G
1H
06
1F!
1J
0N
0K
0=
1S
0L
1M
#1420000
0!
0G
0H
16
#1430000
1!
1G
1H
06
0D!
0F!
1C!
0E!
0S
1L
0J
1N
0T
0M
1K
1=
1T
1M
0=
1U
0L
0U
#1440000
0!
0G
0H
16
#1450000
1!
1G
1H
06
1F!
1J
0N
1=
#1460000
0!
0G
0H
16
#1470000
1!
1G
1H
06
0F!
1E!
0J
1N
0K
0=
1K
1=
1L
0L
#1480000
0!
0G
0H
16
#1490000
1!
1G
1H
06
1F!
1J
0N
0K
0=
1L
#1500000
0!
0G
0H
16
#1510000
1!
1G
1H
06
1D!
0F!
0E!
1S
0L
0J
1N
1K
1=
0T
0M
0=
0S
1L
1U
1T
1M
0U
#1520000
0!
0G
0H
16
#1530000
1!
1G
1H
06
1F!
1J
0N
1=
#1540000
0!
0G
0H
16
#1550000
1!
1G
1H
06
0F!
1E!
0J
1N
0K
0=
1K
1=
1S
0L
0S
1L
0T
0M
1T
1M
1U
0U
#1560000
0!
0G
0H
16
#1570000
1!
1G
1H
06
1F!
1J
0N
0K
0=
1S
0L
0T
0M
1U
#1580000
0!
0G
0H
16
#1590000
1!
1G
1H
06
1B!
0D!
0F!
0C!
0E!
1V
0U
0S
1L
0J
1N
1T
1M
1K
1=
1P
0M
0=
0V
1U
0L
0P
#1600000
0!
0G
0H
16
#1610000
1!
1G
1H
06
1F!
1J
0N
1=
#1620000
0!
0G
0H
16
#1630000
1!
1G
1H
06
0F!
1E!
0J
1N
0K
0=
1K
1=
1L
0L
#1640000
0!
0G
0H
16
#1650000
1!
1G
1H
06
1F!
1J
0N
0K
0=
1L
#1660000
0!
0G
0H
16
#1670000
1!
1G
1H
06
1D!
0F!
0E!
0O
1S
0L
0J
1N
1K
1=
1M
0=
0S
1L
0M
#1680000
0!
0G
0H
16
#1690000
1!
1G
1H
06
1F!
1O
1J
0N
1=
#1700000
0!
0G
0H
16
#1710000
1!
1G
1H
06
0F!
1E!
0J
1N
0K
0=
1K
1=
1S
0L
0S
1L
1M
0M
#1720000
0!
0G
0H
16
#1730000
1!
1G
1H
06
1F!
1J
0N
0K
0=
1S
0L
1M
#1740000
0!
0G
0H
16
#1750000
1!
1G
1H
06
0D!
0F!
1C!
0E!
0S
1L
0J
1N
0T
0M
1K
1=
1T
1M
0=
1V
0U
0L
0V
1U
1P
0P
#1760000
0!
0G
0H
16
#1770000
1!
1G
1H
06
1F!
1J
0N
1=
#1780000
0!
0G
0H
16
#1790000
1!
1G
1H
06
0F!
1E!
0J
1N
0K
0=
1K
1=
1L
0L
#1800000
0!
0G
0H
16
#1810000
1!
1G
1H
06
1F!
1J
0N
0K
0=
1L
#1820000
0!
0G
0H
16
#1830000
1!
1G
1H
06
1D!
0F!
0E!
1S
0L
0J
1N
1K
1=
0T
0M
0=
0S
1L
1V
0U
1T
1M
1P
0V
1U
0P
#1840000
0!
0G
0H
16
#1850000
1!
1G
1H
06
1F!
1J
0N
1=
#1860000
0!
0G
0H
16
#1870000
1!
1G
1H
06
0F!
1E!
0J
1N
0K
0=
1K
1=
1S
0L
0S
1L
0T
0M
1T
1M
1V
0U
0V
1U
1P
0P
#1880000
0!
0G
0H
16
#1890000
1!
1G
1H
06
1F!
1J
0N
0K
0=
1S
0L
0T
0M
1V
0U
1P
#1900000
0!
0G
0H
16
#1910000
1!
1G
1H
06
0B!
0D!
1A!
0F!
0C!
0E!
0V
1U
0Q
0S
1L
0W
0P
0J
1N
1T
1M
1K
1=
1W
1P
0M
1Y
0X
0=
0U
0L
0Y
1X
1>
0>
#1920000
0!
0G
0H
16
#1930000
1!
1G
1H
06
1F!
1J
0N
1=
#1940000
0!
0G
0H
16
#1950000
1!
1G
1H
06
0F!
1E!
0J
1N
0K
0=
1K
1=
1L
0L
#1960000
0!
0G
0H
16
#1970000
1!
1G
1H
06
1F!
1J
0N
0K
0=
1L
#1980000
0!
0G
0H
16
#1990000
1!
1G
1H
06
1D!
0F!
0E!
0O
1S
0L
0J
1N
1K
1=
1a
1R
1M
0=
0S
1L
0M
#2000000
0!
0G
0H
16
#2010000
1!
1G
1H
06
1b
0@!
0D!
0A!
0X
1Q
1O
0L
0P
0a
0R
#2020000
0!
0G
0H
16
#2030000
1!
1G
1H
06
0b
1F!
1J
0N
1=
#2040000
0!
0G
0H
16
#2050000
1!
1G
1H
06
0F!
1E!
0J
1N
0K
0=
1K
1=
1L
0L
#2060000
0!
0G
0H
16
#2070000
1!
1G
1H
06
1F!
1J
0N
0K
0=
1L
#2080000
0!
0G
0H
16
#2090000
1!
1G
1H
06
1D!
0F!
0E!
0O
1S
0L
0J
1N
1K
1=
1M
0=
0S
1L
0M
#2100000
0!
0G
0H
16
#2110000
1!
1G
1H
06
1F!
1O
1J
0N
1=
#2120000
0!
0G
0H
16
#2130000
1!
1G
1H
06
0F!
1E!
0J
1N
0K
0=
1K
1=
1S
0L
0S
1L
1M
0M
#2140000
0!
0G
0H
16
#2150000
1!
1G
1H
06
1F!
1J
0N
0K
0=
1S
0L
1M
#2160000
0!
0G
0H
16
#2170000
1!
1G
1H
06
0D!
0F!
1C!
0E!
0S
1L
0J
1N
0T
0M
1K
1=
1T
1M
0=
1U
0L
0U
#2180000
0!
0G
0H
16
#2190000
1!
1G
1H
06
1F!
1J
0N
1=
#2200000
0!
0G
0H
16
#2210000
1!
1G
1H
06
0F!
1E!
0J
1N
0K
0=
1K
1=
1L
0L
#2220000
0!
0G
0H
16
#2230000
1!
1G
1H
06
1F!
1J
0N
0K
0=
1L
#2240000
0!
0G
0H
16
#2250000
1!
1G
1H
06
1D!
0F!
0E!
1S
0L
0J
1N
1K
1=
0T
0M
0=
0S
1L
1U
1T
1M
0U
#2260000
0!
0G
0H
16
#2270000
1!
1G
1H
06
1F!
1J
0N
1=
#2280000
0!
0G
0H
16
#2290000
1!
1G
1H
06
0F!
1E!
0J
1N
0K
0=
1K
1=
1S
0L
0S
1L
0T
0M
1T
1M
1U
0U
#2300000
0!
0G
0H
16
#2310000
1!
1G
1H
06
1F!
1J
0N
0K
0=
1S
0L
0T
0M
1U
#2320000
0!
0G
0H
16
#2330000
1!
1G
1H
06
1B!
0D!
0F!
0C!
0E!
1V
0U
0S
1L
0J
1N
1T
1M
1K
1=
1P
0M
0=
0V
1U
0L
0P
#2340000
0!
0G
0H
16
#2350000
1!
1G
1H
06
1F!
1J
0N
1=
#2360000
0!
0G
0H
16
#2370000
1!
1G
1H
06
0F!
1E!
0J
1N
0K
0=
1K
1=
1L
0L
#2380000
0!
0G
0H
16
#2390000
1!
1G
1H
06
1F!
1J
0N
0K
0=
1L
#2400000
0!
0G
0H
16
#2410000
1!
1G
1H
06
1D!
0F!
0E!
0O
1S
0L
0J
1N
1K
1=
1M
0=
0S
1L
0M
#2420000
0!
0G
0H
16
#2430000
1!
1G
1H
06
1F!
1O
1J
0N
1=
#2440000
0!
0G
0H
16
#2450000
1!
1G
1H
06
0F!
1E!
0J
1N
0K
0=
1K
1=
1S
0L
0S
1L
1M
0M
#2460000
0!
0G
0H
16
#2470000
1!
1G
1H
06
1F!
1J
0N
0K
0=
1S
0L
1M
#2480000
0!
0G
0H
16
#2490000
1!
1G
1H
06
0D!
0F!
1C!
0E!
0S
1L
0J
1N
0T
0M
1K
1=
1T
1M
0=
1V
0U
0L
0V
1U
1P
0P
#2500000
0!
0G
0H
16
#2510000
1!
1G
1H
06
1F!
1J
0N
1=
#2520000
0!
0G
0H
16
#2530000
1!
1G
1H
06
0F!
1E!
0J
1N
0K
0=
1K
1=
1L
0L
#2540000
0!
0G
0H
16
#2550000
1!
1G
1H
06
1F!
1J
0N
0K
0=
1L
#2560000
0!
0G
0H
16
#2570000
1!
1G
1H
06
1D!
0F!
0E!
1S
0L
0J
1N
1K
1=
0T
0M
0=
0S
1L
1V
0U
1T
1M
1P
0V
1U
0P
#2580000
0!
0G
0H
16
#2590000
1!
1G
1H
06
1F!
1J
0N
1=
#2600000
0!
0G
0H
16
#2610000
1!
1G
1H
06
0F!
1E!
0J
1N
0K
0=
1K
1=
1S
0L
0S
1L
0T
0M
1T
1M
1V
0U
0V
1U
1P
0P
#2620000
0!
0G
0H
16
#2630000
1!
1G
1H
06
1F!
1J
0N
0K
0=
1S
0L
0T
0M
1V
0U
1P
#2640000
0!
0G
0H
16
#2650000
1!
1G
1H
06
0B!
0D!
1A!
0F!
0C!
0E!
0V
1U
0S
1L
0W
0P
0J
1N
1T
1M
1K
1=
1W
1P
0M
1X
0=
0U
0L
0X
#2660000
0!
0G
0H
16
#2670000
1!
1G
1H
06
1F!
1J
0N
1=
#2680000
0!
0G
0H
16
#2690000
1!
1G
1H
06
0F!
1E!
0J
1N
0K
0=
1K
1=
1L
0L
#2700000
0!
0G
0H
16
#2710000
1!
1G
1H
06
1F!
1J
0N
0K
0=
1L
#2720000
0!
0G
0H
16
#2730000
1!
1G
1H
06
1D!
0F!
0E!
0O
1S
0L
0J
1N
1K
1=
1M
0=
0S
1L
0M
#2740000
0!
0G
0H
16
#2750000
1!
1G
1H
06
1F!
1O
1J
0N
1=
#2760000
0!
0G
0H
16
#2770000
1!
1G
1H
06
0F!
1E!
0J
1N
0K
0=
1K
1=
1S
0L
0S
1L
1M
0M
#2780000
0!
0G
0H
16
#2790000
1!
1G
1H
06
1F!
1J
0N
0K
0=
1S
0L
1M
#2800000
0!
0G
0H
16
#2810000
1!
1G
1H
06
0D!
0F!
1C!
0E!
0S
1L
0J
1N
0T
0M
1K
1=
1T
1M
0=
1U
0L
0U
#2820000
0!
0G
0H
16
#2830000
1!
1G
1H
06
1F!
1J
0N
1=
#2840000
0!
0G
0H
16
#2850000
1!
1G
1H
06
0F!
1E!
0J
1N
0K
0=
1K
1=
1L
0L
#2860000
0!
0G
0H
16
#2870000
1!
1G
1H
06
1F!
1J
0N
0K
0=
1L
#2880000
0!
0G
0H
16
#2890000
1!
1G
1H
06
1D!
0F!
0E!
1S
0L
0J
1N
1K
1=
0T
0M
0=
0S
1L
1U
1T
1M
0U
#2900000
0!
0G
0H
16
#2910000
1!
1G
1H
06
1F!
1J
0N
1=
#2920000
0!
0G
0H
16
#2930000
1!
1G
1H
06
0F!
1E!
0J
1N
0K
0=
1K
1=
1S
0L
0S
1L
0T
0M
1T
1M
1U
0U
#2940000
0!
0G
0H
16
#2950000
1!
1G
1H
06
1F!
1J
0N
0K
0=
1S
0L
0T
0M
1U
#2960000
0!
0G
0H
16
#2970000
1!
1G
1H
06
1B!
0D!
0F!
0C!
0E!
1V
0U
0S
1L
0J
1N
1T
1M
1K
1=
0W
0P
0M
0=
0V
1U
0L
1X
1W
1P
0X
#2980000
0!
0G
0H
16
#2990000
1!
1G
1H
06
1F!
1J
0N
1=
#3000000
0!
0G
0H
16
#3010000
1!
1G
1H
06
0F!
1E!
0J
1N
0K
0=
1K
1=
1L
0L
#3020000
0!
0G
0H
16
#3030000
1!
1G
1H
06
1F!
1J
0N
0K
0=
1L
#3040000
0!
0G
0H
16
#3050000
1!
1G
1H
06
1D!
0F!
0E!
0O
1S
0L
0J
1N
1K
1=
1M
0=
0S
1L
0M
#3060000
0!
0G
0H
16
#3070000
1!
1G
1H
06
1F!
1O
1J
0N
1=
#3080000
0!
0G
0H
16
#3090000
1!
1G
1H
06
0F!
1E!
0J
1N
0K
0=
1K
1=
1S
0L
0S
1L
1M
0M
#3100000
0!
0G
0H
16
#3110000
1!
1G
1H
06
1F!
1J
0N
0K
0=
1S
0L
1M
#3120000
0!
0G
0H
16
#3130000
1!
1G
1H
06
0D!
0F!
1C!
0E!
0S
1L
0J
1N
0T
0M
1K
1=
1T
1M
0=
1V
0U
0L
0V
1U
0W
0P
1W
1P
1X
0X
#3140000
0!
0G
0H
16
#3150000
1!
1G
1H
06
1F!
1J
0N
1=
#3160000
0!
0G
0H
16
#3170000
1!
1G
1H
06
0F!
1E!
0J
1N
0K
0=
1K
1=
1L
0L
#3180000
0!
0G
0H
16
#3190000
1!
1G
1H
06
1F!
1J
0N
0K
0=
1L
#3200000
0!
0G
0H
16
#3210000
1!
1G
1H
06
1D!
0F!
0E!
1S
0L
0J
1N
1K
1=
0T
0M
0=
0S
1L
1V
0U
1T
1M
0W
0P
0V
1U
1X
1W
1P
0X
#3220000
0!
0G
0H
16
#3230000
1!
1G
1H
06
1F!
1J
0N
1=
#3240000
0!
0G
0H
16
#3250000
1!
1G
1H
06
0F!
1E!
0J
1N
0K
0=
1K
1=
1S
0L
0S
1L
0T
0M
1T
1M
1V
0U
0V
1U
0W
0P
1W
1P
1X
0X
#3260000
0!
0G
0H
16
#3270000
1!
1G
1H
06
1F!
1J
0N
0K
0=
1S
0L
0T
0M
1V
0U
0W
0P
1X
#3280000
0!
0G
0H
16
