tx_shift_register/simulation/qsim/tx_shift_register.msim.vcd
$comment
	File created using the following command:
		vcd file tx_shift_register.msim.vcd -direction
$end
$date
	Sun Nov 26 14:42:25 2023
$end
$version
	ModelSim Version 10.1d
$end
$timescale
	1ps
$end
$scope module tx_shift_register_vlg_vec_tst $end
$var reg 1 ! clk $end
$var reg 1 " reset $end
$var reg 11 # tx_sr_in [10:0] $end
$var reg 1 $ tx_sr_load $end
$var reg 1 % tx_sr_shift $end
$var wire 1 & tx_sr_out $end
$var wire 1 ' sampler $end
$scope module i1 $end
$var wire 1 ( gnd $end
$var wire 1 ) vcc $end
$var wire 1 * unknown $end
$var tri1 1 + devclrn $end
$var tri1 1 , devpor $end
$var tri1 1 - devoe $end
$var wire 1 . reset~combout $end
$var wire 1 / clk~combout $end
$var wire 1 0 clk~clkctrl_outclk $end
$var wire 1 1 tx_sr_load~combout $end
$var wire 1 2 tx_sr_shift~combout $end
$var wire 1 3 tmp_data~11_combout $end
$var wire 1 4 tmp_data~12_combout $end
$var wire 1 5 tmp_data~10_combout $end
$var wire 1 6 tmp_data[0]~1_combout $end
$var wire 1 7 tmp_data~9_combout $end
$var wire 1 8 tmp_data~8_combout $end
$var wire 1 9 tmp_data~7_combout $end
$var wire 1 : tmp_data~6_combout $end
$var wire 1 ; tmp_data~5_combout $end
$var wire 1 < tmp_data~4_combout $end
$var wire 1 = tmp_data~3_combout $end
$var wire 1 > tmp_data~2_combout $end
$var wire 1 ? tmp_data~0_combout $end
$var wire 1 @ tx_sr_in~combout [10] $end
$var wire 1 A tx_sr_in~combout [9] $end
$var wire 1 B tx_sr_in~combout [8] $end
$var wire 1 C tx_sr_in~combout [7] $end
$var wire 1 D tx_sr_in~combout [6] $end
$var wire 1 E tx_sr_in~combout [5] $end
$var wire 1 F tx_sr_in~combout [4] $end
$var wire 1 G tx_sr_in~combout [3] $end
$var wire 1 H tx_sr_in~combout [2] $end
$var wire 1 I tx_sr_in~combout [1] $end
$var wire 1 J tx_sr_in~combout [0] $end
$var wire 1 K tmp_data [10] $end
$var wire 1 L tmp_data [9] $end
$var wire 1 M tmp_data [8] $end
$var wire 1 N tmp_data [7] $end
$var wire 1 O tmp_data [6] $end
$var wire 1 P tmp_data [5] $end
$var wire 1 Q tmp_data [4] $end
$var wire 1 R tmp_data [3] $end
$var wire 1 S tmp_data [2] $end
$var wire 1 T tmp_data [1] $end
$var wire 1 U tmp_data [0] $end
$upscope $end
$upscope $end
$enddefinitions $end
#0
$dumpvars
0!
1"
b10110101001 #
0$
0%
1&
x'
0(
1)
x*
1+
1,
1-
1.
0/
00
01
02
03
04
15
06
07
08
09
0:
0;
0<
0=
0>
0?
1J
0I
0H
1G
0F
1E
0D
1C
1B
0A
1@
0U
0T
0S
0R
0Q
0P
0O
0N
0M
0L
0K
$end
#10000
1!
1/
10
0'
#20000
1$
0!
11
0/
00
1'
1>
1=
1;
19
16
14
#30000
1!
1/
10
0'
1T
1S
1Q
1O
1L
1K
#40000
0$
0!
01
0/
00
1'
1?
0=
1<
0;
1:
09
17
06
05
04
13
14
#50000
1!
1/
10
0'
#60000
0!
0/
00
1'
#70000
1!
1/
10
0'
#80000
1%
0!
12
0/
00
1'
16
#90000
1!
1/
10
0'
1U
0S
1R
0Q
1P
0O
1M
0L
0>
1=
0<
1;
0:
18
07
0&
#100000
0%
0!
02
0/
00
1'
06
#110000
1!
1/
10
0'
#120000
1%
0!
12
0/
00
1'
16
#130000
1!
1/
10
0'
0T
1S
0R
1Q
0P
1N
0M
0?
1>
0=
1<
0;
19
08
#140000
0%
0!
02
0/
00
1'
06
#150000
1!
1/
10
0'
#160000
1%
0!
12
0/
00
1'
16
#170000
1!
1/
10
0'
0U
1T
0S
1R
0Q
1O
0N
1?
0>
1=
0<
1:
09
1&
#180000
0%
0!
02
0/
00
1'
06
#190000
1!
1/
10
0'
#200000
1%
0!
12
0/
00
1'
16
#210000
1!
1/
10
0'
1U
0T
1S
0R
1P
0O
0?
1>
0=
1;
0:
0&
#220000
0%
0!
02
0/
00
1'
06
#230000
1!
1/
10
0'
#240000
1%
0!
12
0/
00
1'
16
#250000
1!
1/
10
0'
0U
1T
0S
1Q
0P
1?
0>
1<
0;
1&
#260000
0%
0!
02
0/
00
1'
06
#270000
1!
1/
10
0'
#280000
1%
0!
12
0/
00
1'
16
#290000
1!
1/
10
0'
1U
0T
1R
0Q
0?
1=
0<
0&
#300000
0%
0!
02
0/
00
1'
06
#310000
1!
1/
10
0'
#320000
1%
0!
12
0/
00
1'
16
#330000
1!
1/
10
0'
0U
1S
0R
1>
0=
1&
#340000
0%
0!
02
0/
00
1'
06
#350000
1!
1/
10
0'
#360000
1%
0!
12
0/
00
1'
16
#370000
1!
1/
10
0'
1T
0S
1?
0>
#380000
0%
0!
02
0/
00
1'
06
#390000
1!
1/
10
0'
#400000
1%
0!
12
0/
00
1'
16
#410000
1!
1/
10
0'
1U
0T
0?
0&
#420000
0%
0!
02
0/
00
1'
06
#430000
1!
1/
10
0'
#440000
1%
0!
12
0/
00
1'
16
#450000
1!
1/
10
0'
0U
1&
#460000
b11110101001 #
b11100101001 #
b11101101001 #
b11101101101 #
0%
0!
1H
1D
0C
1A
02
0/
00
1'
06
#470000
1!
1/
10
0'
#480000
1$
0!
11
0/
00
1'
1>
1;
18
16
03
#490000
1!
1/
10
0'
1T
1Q
1N
#500000
0$
0!
01
0/
00
1'
1?
0>
1<
0;
19
08
06
04
13
14
#510000
1!
1/
10
0'
#520000
0!
0/
00
1'
#530000
1!
1/
10
0'
#540000
0!
0/
00
1'
#550000
1!
1/
10
0'
#560000
0!
0/
00
1'
#570000
1!
1/
10
0'
#580000
1%
0!
12
0/
00
1'
16
#590000
1!
1/
10
0'
1U
0T
1R
0Q
1O
0N
0?
1=
0<
1:
09
0&
#600000
0%
0!
02
0/
00
1'
06
#610000
1!
1/
10
0'
#620000
1%
0!
12
0/
00
1'
16
#630000
1!
1/
10
0'
0U
1S
0R
1P
0O
1>
0=
1;
0:
1&
#640000
0%
0!
02
0/
00
1'
06
#650000
1!
1/
10
0'
#660000
1%
0!
12
0/
00
1'
16
#670000
1!
1/
10
0'
1T
0S
1Q
0P
1?
0>
1<
0;
#680000
0%
0!
02
0/
00
1'
06
#690000
1!
1/
10
0'
#700000
1%
0!
12
0/
00
1'
16
#710000
1!
1/
10
0'
1U
0T
1R
0Q
0?
1=
0<
0&
#720000
0%
0!
02
0/
00
1'
06
#730000
1!
1/
10
0'
#740000
0"
1%
0!
0.
12
0/
00
1'
0=
16
03
04
#750000
1!
1/
10
0'
0U
0R
0K
1&
#760000
1"
0%
0!
1.
02
0/
00
1'
06
15
#770000
1!
1/
10
0'
#780000
1%
0!
12
0/
00
1'
16
13
14
#790000
1!
1/
10
0'
1L
1K
17
05
#800000
0%
0!
02
0/
00
1'
06
#810000
1!
1/
10
0'
#820000
1%
0!
12
0/
00
1'
16
#830000
1!
1/
10
0'
1M
0L
18
07
#840000
0%
0!
02
0/
00
1'
06
#850000
1!
1/
10
0'
#860000
1%
0!
12
0/
00
1'
16
#870000
1!
1/
10
0'
1N
0M
19
08
#880000
0%
0!
02
0/
00
1'
06
#890000
1!
1/
10
0'
#900000
1%
0!
12
0/
00
1'
16
#910000
1!
1/
10
0'
1O
0N
1:
09
#920000
0%
0!
02
0/
00
1'
06
#930000
1!
1/
10
0'
#940000
1%
0!
12
0/
00
1'
16
#950000
1!
1/
10
0'
1P
0O
1;
0:
#960000
0%
0!
02
0/
00
1'
06
#970000
1!
1/
10
0'
#980000
1%
0!
12
0/
00
1'
16
#990000
1!
1/
10
0'
1Q
0P
1<
0;
#1000000
0%
0!
02
0/
00
1'
06
#1010000
1!
1/
10
0'
#1020000
1%
0!
12
0/
00
1'
16
#1030000
1!
1/
10
0'
1R
0Q
1=
0<
#1040000
0%
0!
02
0/
00
1'
06
#1050000
1!
1/
10
0'
#1060000
0!
0/
00
1'
#1070000
1!
1/
10
0'
#1080000
0!
0/
00
1'
#1090000
1!
1/
10
0'
#1100000
0!
0/
00
1'
#1110000
1!
1/
10
0'
#1120000
0!
0/
00
1'
#1130000
1!
1/
10
0'
#1140000
0!
0/
00
1'
#1150000
1!
1/
10
0'
#1160000
0!
0/
00
1'
#1170000
1!
1/
10
0'
#1180000
0!
0/
00
1'
#1190000
1!
1/
10
0'
