tx_counter/simulation/qsim/tx_counter.msim.vcd
$comment
	File created using the following command:
		vcd file tx_counter.msim.vcd -direction
$end
$date
	Thu Nov 23 13:58:58 2023
$end
$version
	ModelSim Version 10.1d
$end
$timescale
	1ps
$end
$scope module tx_counter_vlg_vec_tst $end
$var reg 1 ! clk $end
$var reg 1 " count_enable $end
$var reg 1 # reset $end
$var wire 1 $ count_out $end
$var wire 1 % sampler $end
$scope module i1 $end
$var wire 1 & gnd $end
$var wire 1 ' vcc $end
$var wire 1 ( unknown $end
$var tri1 1 ) devclrn $end
$var tri1 1 * devpor $end
$var tri1 1 + devoe $end
$var wire 1 , clk~combout $end
$var wire 1 - clk~clkctrl_outclk $end
$var wire 1 . reset~combout $end
$var wire 1 / count~0_combout $end
$var wire 1 0 count_enable~combout $end
$var wire 1 1 count[0]~1_combout $end
$var wire 1 2 Add0~0_combout $end
$var wire 1 3 count~2_combout $end
$var wire 1 4 Add0~1_combout $end
$var wire 1 5 count~4_combout $end
$var wire 1 6 count~3_combout $end
$var wire 1 7 Equal0~0_combout $end
$var wire 1 8 count [3] $end
$var wire 1 9 count [2] $end
$var wire 1 : count [1] $end
$var wire 1 ; count [0] $end
$upscope $end
$upscope $end
$enddefinitions $end
#0
$dumpvars
0!
1"
1#
0$
x%
0&
1'
x(
1)
1*
1+
0,
0-
1.
1/
10
11
02
03
04
05
06
17
0;
0:
09
08
$end
#10000
1!
1,
1-
0%
1;
16
0/
#20000
0!
0,
0-
1%
#30000
1!
1,
1-
0%
1:
0;
1/
#40000
0!
0,
0-
1%
#50000
1!
1,
1-
0%
1;
06
12
0/
13
#60000
0!
0,
0-
1%
#70000
1!
1,
1-
0%
0:
19
0;
1/
#80000
0!
0,
0-
1%
#90000
1!
1,
1-
0%
1;
16
0/
#100000
0!
0,
0-
1%
#110000
1!
1,
1-
0%
1:
0;
1/
#120000
0!
0,
0-
1%
#130000
1!
1,
1-
0%
1;
06
14
02
0/
15
03
#140000
0!
0,
0-
1%
#150000
1!
1,
1-
0%
0:
18
09
0;
1/
#160000
0!
0,
0-
1%
#170000
1!
1,
1-
0%
1;
16
0/
#180000
0#
0!
0.
0,
0-
1%
06
05
#190000
1!
1,
1-
0%
08
0;
04
#200000
1#
0!
1.
0,
0-
1%
1/
#210000
1!
1,
1-
0%
1;
16
0/
#220000
0!
0,
0-
1%
#230000
1!
1,
1-
0%
1:
0;
1/
#240000
0!
0,
0-
1%
#250000
1!
1,
1-
0%
1;
06
12
0/
13
#260000
0!
0,
0-
1%
#270000
1!
1,
1-
0%
0:
19
0;
1/
#280000
0!
0,
0-
1%
#290000
1!
1,
1-
0%
1;
16
0/
#300000
0!
0,
0-
1%
#310000
1!
1,
1-
0%
1:
0;
1/
#320000
0!
0,
0-
1%
#330000
1!
1,
1-
0%
1;
06
14
02
0/
15
03
#340000
0!
0,
0-
1%
#350000
1!
1,
1-
0%
0:
18
09
0;
1/
#360000
0!
0,
0-
1%
#370000
1!
1,
1-
0%
1;
16
0/
#380000
0!
0,
0-
1%
#390000
1!
1,
1-
0%
1:
0;
07
1/
06
05
0/
1$
#400000
0!
0,
0-
1%
#410000
1!
1,
1-
0%
0:
08
17
04
1/
0$
#420000
0!
0,
0-
1%
#430000
1!
1,
1-
0%
1;
16
0/
#440000
0!
0,
0-
1%
#450000
1!
1,
1-
0%
1:
0;
1/
#460000
0!
0,
0-
1%
#470000
1!
1,
1-
0%
1;
06
12
0/
13
#480000
0!
0,
0-
1%
#490000
1!
1,
1-
0%
0:
19
0;
1/
#500000
0!
0,
0-
1%
#510000
1!
1,
1-
0%
1;
16
0/
#520000
0!
0,
0-
1%
#530000
1!
1,
1-
0%
1:
0;
1/
#540000
0!
0,
0-
1%
#550000
1!
1,
1-
0%
1;
06
14
02
0/
15
03
#560000
0!
0,
0-
1%
#570000
1!
1,
1-
0%
0:
18
09
0;
1/
#580000
0!
0,
0-
1%
#590000
1!
1,
1-
0%
1;
16
0/
#600000
0!
0,
0-
1%
#610000
1!
1,
1-
0%
1:
0;
07
1/
06
05
0/
1$
#620000
0!
0,
0-
1%
#630000
1!
1,
1-
0%
0:
08
17
04
1/
0$
#640000
0!
0,
0-
1%
#650000
1!
1,
1-
0%
1;
16
0/
#660000
0!
0,
0-
1%
#670000
1!
1,
1-
0%
1:
0;
1/
#680000
0!
0,
0-
1%
#690000
1!
1,
1-
0%
1;
06
12
0/
13
#700000
0!
0,
0-
1%
#710000
1!
1,
1-
0%
0:
19
0;
1/
#720000
0!
0,
0-
1%
#730000
1!
1,
1-
0%
1;
16
0/
#740000
0!
0,
0-
1%
#750000
1!
1,
1-
0%
1:
0;
1/
#760000
0!
0,
0-
1%
#770000
1!
1,
1-
0%
1;
06
14
02
0/
15
03
#780000
0!
0,
0-
1%
#790000
1!
1,
1-
0%
0:
18
09
0;
1/
#800000
0!
0,
0-
1%
#810000
1!
1,
1-
0%
1;
16
0/
#820000
0!
0,
0-
1%
#830000
1!
1,
1-
0%
1:
0;
07
1/
06
05
0/
1$
#840000
0!
0,
0-
1%
#850000
1!
1,
1-
0%
0:
08
17
04
1/
0$
#860000
0!
0,
0-
1%
#870000
1!
1,
1-
0%
1;
16
0/
#880000
0!
0,
0-
1%
#890000
1!
1,
1-
0%
1:
0;
1/
#900000
0!
0,
0-
1%
#910000
1!
1,
1-
0%
1;
06
12
0/
13
#920000
0!
0,
0-
1%
#930000
1!
1,
1-
0%
0:
19
0;
1/
#940000
0!
0,
0-
1%
#950000
1!
1,
1-
0%
1;
16
0/
#960000
0!
0,
0-
1%
#970000
1!
1,
1-
0%
1:
0;
1/
#980000
0!
0,
0-
1%
#990000
1!
1,
1-
0%
1;
06
14
02
0/
15
03
