tx_counter/simulation/qsim/tx_counter.msim.vcd
$comment
	File created using the following command:
		vcd file tx_counter.msim.vcd -direction
$end
$date
	Sun Nov 26 14:14:25 2023
$end
$version
	ModelSim Version 10.1d
$end
$timescale
	1ps
$end
$scope module tx_counter_vlg_vec_tst $end
$var reg 1 ! clk $end
$var reg 1 " count_enable $end
$var reg 1 # reset $end
$var wire 1 $ count_out $end
$var wire 1 % sampler $end
$scope module i1 $end
$var wire 1 & gnd $end
$var wire 1 ' vcc $end
$var wire 1 ( unknown $end
$var tri1 1 ) devclrn $end
$var tri1 1 * devpor $end
$var tri1 1 + devoe $end
$var wire 1 , clk~combout $end
$var wire 1 - clk~clkctrl_outclk $end
$var wire 1 . reset~combout $end
$var wire 1 / count_enable~combout $end
$var wire 1 0 count[0]~4_combout $end
$var wire 1 1 count[1]~0_combout $end
$var wire 1 2 count[1]~1_combout $end
$var wire 1 3 count[2]~5_combout $end
$var wire 1 4 count[2]~6_combout $end
$var wire 1 5 count[3]~2_combout $end
$var wire 1 6 count[3]~3_combout $end
$var wire 1 7 Equal0~0_combout $end
$var wire 1 8 count [3] $end
$var wire 1 9 count [2] $end
$var wire 1 : count [1] $end
$var wire 1 ; count [0] $end
$upscope $end
$upscope $end
$enddefinitions $end
#0
$dumpvars
0!
0"
1#
0$
x%
0&
1'
x(
1)
1*
1+
0,
0-
1.
0/
00
11
02
03
04
05
06
07
0;
0:
09
08
$end
#10000
1!
1,
1-
0%
#20000
0!
0,
0-
1%
#30000
1!
1,
1-
0%
#40000
1"
0!
1/
0,
0-
1%
10
#50000
1!
1,
1-
0%
1;
01
00
12
#60000
0!
0,
0-
1%
#70000
1!
1,
1-
0%
1:
0;
02
11
10
12
#80000
0!
0,
0-
1%
#90000
1!
1,
1-
0%
1;
13
01
00
14
02
#100000
0!
0,
0-
1%
#110000
1!
1,
1-
0%
19
0:
0;
12
11
10
02
#120000
0!
0,
0-
1%
#130000
1!
1,
1-
0%
1;
01
00
12
#140000
0!
0,
0-
1%
#150000
1!
1,
1-
0%
1:
0;
02
11
10
12
#160000
0!
0,
0-
1%
#170000
1!
1,
1-
0%
1;
15
03
01
00
16
04
02
#180000
0!
0,
0-
1%
#190000
1!
1,
1-
0%
18
09
0:
0;
06
05
12
11
10
16
02
#200000
0!
0,
0-
1%
#210000
1!
1,
1-
0%
1;
01
00
12
#220000
0!
0,
0-
1%
#230000
1!
1,
1-
0%
1:
0;
17
02
11
10
06
00
1$
#240000
0!
0,
0-
1%
#250000
1!
1,
1-
0%
08
0:
07
10
0$
#260000
0!
0,
0-
1%
#270000
1!
1,
1-
0%
1;
01
00
12
#280000
0#
0!
0.
0,
0-
1%
02
#290000
1!
1,
1-
0%
0;
11
#300000
1#
0!
1.
0,
0-
1%
10
#310000
1!
1,
1-
0%
1;
01
00
12
#320000
0!
0,
0-
1%
#330000
1!
1,
1-
0%
1:
0;
02
11
10
12
#340000
0!
0,
0-
1%
#350000
1!
1,
1-
0%
1;
13
01
00
14
02
#360000
0"
0!
0/
0,
0-
1%
03
11
10
04
12
#370000
1!
1,
1-
0%
#380000
0!
0,
0-
1%
#390000
1!
1,
1-
0%
#400000
0!
0,
0-
1%
#410000
1!
1,
1-
0%
#420000
0!
0,
0-
1%
#430000
1!
1,
1-
0%
#440000
0!
0,
0-
1%
#450000
1!
1,
1-
0%
#460000
0!
0,
0-
1%
#470000
1!
1,
1-
0%
#480000
1"
0!
1/
0,
0-
1%
13
01
00
14
02
#490000
1!
1,
1-
0%
19
0:
0;
12
11
10
02
#500000
0!
0,
0-
1%
#510000
1!
1,
1-
0%
1;
01
00
12
#520000
0!
0,
0-
1%
#530000
1!
1,
1-
0%
1:
0;
02
11
10
12
#540000
0!
0,
0-
1%
#550000
1!
1,
1-
0%
1;
15
03
01
00
16
04
02
#560000
0!
0,
0-
1%
#570000
1!
1,
1-
0%
18
09
0:
0;
06
05
12
11
10
16
02
#580000
0!
0,
0-
1%
#590000
1!
1,
1-
0%
1;
01
00
12
#600000
0!
0,
0-
1%
#610000
1!
1,
1-
0%
1:
0;
17
02
11
10
06
00
1$
#620000
0!
0,
0-
1%
#630000
1!
1,
1-
0%
08
0:
07
10
0$
#640000
0!
0,
0-
1%
#650000
1!
1,
1-
0%
1;
01
00
12
#660000
0!
0,
0-
1%
#670000
1!
1,
1-
0%
1:
0;
02
11
10
12
#680000
0"
0!
0/
0,
0-
1%
00
#690000
1!
1,
1-
0%
#700000
0!
0,
0-
1%
#710000
1!
1,
1-
0%
#720000
0!
0,
0-
1%
#730000
1!
1,
1-
0%
#740000
0!
0,
0-
1%
#750000
1!
1,
1-
0%
#760000
0!
0,
0-
1%
#770000
1!
1,
1-
0%
#780000
0!
0,
0-
1%
#790000
1!
1,
1-
0%
#800000
0!
0,
0-
1%
#810000
1!
1,
1-
0%
#820000
0!
0,
0-
1%
#830000
1!
1,
1-
0%
#840000
0!
0,
0-
1%
#850000
1!
1,
1-
0%
#860000
0!
0,
0-
1%
#870000
1!
1,
1-
0%
#880000
0!
0,
0-
1%
#890000
1!
1,
1-
0%
#900000
0!
0,
0-
1%
#910000
1!
1,
1-
0%
#920000
0!
0,
0-
1%
#930000
1!
1,
1-
0%
#940000
0!
0,
0-
1%
#950000
1!
1,
1-
0%
#960000
0!
0,
0-
1%
#970000
1!
1,
1-
0%
#980000
0!
0,
0-
1%
#990000
1!
1,
1-
0%
