tx_counter/simulation/qsim/tx_counter.msim.vcd
$comment
	File created using the following command:
		vcd file tx_counter.msim.vcd -direction
$end
$date
	Fri Nov 17 15:33:59 2023
$end
$version
	ModelSim Version 10.1d
$end
$timescale
	1ps
$end
$scope module tx_counter_vlg_vec_tst $end
$var reg 1 ! clk $end
$var reg 1 " count_enable $end
$var reg 1 # reset $end
$var wire 1 $ count_out [3] $end
$var wire 1 % count_out [2] $end
$var wire 1 & count_out [1] $end
$var wire 1 ' count_out [0] $end
$var wire 1 ( sampler $end
$scope module i1 $end
$var wire 1 ) gnd $end
$var wire 1 * vcc $end
$var wire 1 + unknown $end
$var tri1 1 , devclrn $end
$var tri1 1 - devpor $end
$var tri1 1 . devoe $end
$var wire 1 / clk~combout $end
$var wire 1 0 clk~clkctrl_outclk $end
$var wire 1 1 reset~combout $end
$var wire 1 2 count_out~0_combout $end
$var wire 1 3 count_enable~combout $end
$var wire 1 4 count_out[0]~1_combout $end
$var wire 1 5 count_out[0]~reg0_regout $end
$var wire 1 6 Add0~0_combout $end
$var wire 1 7 count_out~4_combout $end
$var wire 1 8 count_out[2]~reg0_regout $end
$var wire 1 9 count_out[0]~2_combout $end
$var wire 1 : count_out~3_combout $end
$var wire 1 ; count_out[1]~reg0_regout $end
$var wire 1 < Add0~1_combout $end
$var wire 1 = count_out~5_combout $end
$var wire 1 > count_out[3]~reg0_regout $end
$upscope $end
$upscope $end
$enddefinitions $end
#0
$dumpvars
0!
1"
1#
0'
0&
0%
0$
x(
0)
1*
x+
1,
1-
1.
0/
00
11
12
13
14
05
06
07
08
19
0:
0;
0<
0=
0>
$end
#10000
1!
1/
10
0(
15
1:
02
1'
#20000
0!
0/
00
1(
#30000
1!
1/
10
0(
1;
05
12
1&
0'
#40000
0!
0/
00
1(
#50000
1!
1/
10
0(
15
0:
16
02
1'
17
#60000
0#
0"
0!
01
03
0/
00
1(
07
#70000
1!
1/
10
0(
0;
05
06
0&
0'
#80000
1#
0!
11
0/
00
1(
04
12
#90000
1!
1/
10
0(
#100000
0!
0/
00
1(
#110000
1!
1/
10
0(
#120000
0!
0/
00
1(
#130000
1!
1/
10
0(
#140000
0!
0/
00
1(
#150000
1!
1/
10
0(
#160000
0!
0/
00
1(
#170000
1!
1/
10
0(
#180000
0!
0/
00
1(
#190000
1!
1/
10
0(
#200000
0!
0/
00
1(
#210000
1!
1/
10
0(
#220000
0!
0/
00
1(
#230000
1!
1/
10
0(
#240000
0!
0/
00
1(
#250000
1!
1/
10
0(
#260000
1"
0!
13
0/
00
1(
14
#270000
1!
1/
10
0(
15
1:
02
1'
#280000
0!
0/
00
1(
#290000
1!
1/
10
0(
1;
05
12
1&
0'
#300000
0!
0/
00
1(
#310000
1!
1/
10
0(
15
0:
16
02
1'
17
#320000
0!
0/
00
1(
#330000
1!
1/
10
0(
0;
18
05
12
0&
1%
0'
#340000
0!
0/
00
1(
#350000
1!
1/
10
0(
15
1:
02
1'
#360000
0!
0/
00
1(
#370000
1!
1/
10
0(
1;
05
12
1&
0'
#380000
0#
0!
01
0/
00
1(
0:
07
02
#390000
1!
1/
10
0(
0;
08
06
0&
0%
#400000
1#
0!
11
0/
00
1(
12
#410000
1!
1/
10
0(
15
1:
02
1'
#420000
0!
0/
00
1(
#430000
1!
1/
10
0(
1;
05
12
1&
0'
#440000
0!
0/
00
1(
#450000
1!
1/
10
0(
15
0:
16
02
1'
17
#460000
0!
0/
00
1(
#470000
1!
1/
10
0(
0;
18
05
12
0&
1%
0'
#480000
0!
0/
00
1(
#490000
1!
1/
10
0(
15
1:
02
1'
#500000
0!
0/
00
1(
#510000
1!
1/
10
0(
1;
05
12
1&
0'
#520000
0!
0/
00
1(
#530000
1!
1/
10
0(
15
1<
0:
06
02
1'
1=
07
#540000
0!
0/
00
1(
#550000
1!
1/
10
0(
1>
0;
08
05
12
1$
0&
0%
0'
#560000
0!
0/
00
1(
#570000
1!
1/
10
0(
15
1:
09
02
1'
0=
0:
#580000
0!
0/
00
1(
#590000
1!
1/
10
0(
0>
05
0<
19
12
0$
0'
#600000
0!
0/
00
1(
#610000
1!
1/
10
0(
15
1:
02
1'
#620000
0!
0/
00
1(
#630000
1!
1/
10
0(
1;
05
12
1&
0'
#640000
0!
0/
00
1(
#650000
1!
1/
10
0(
15
0:
16
02
1'
17
#660000
0!
0/
00
1(
#670000
1!
1/
10
0(
0;
18
05
12
0&
1%
0'
#680000
0!
0/
00
1(
#690000
1!
1/
10
0(
15
1:
02
1'
#700000
0!
0/
00
1(
#710000
1!
1/
10
0(
1;
05
12
1&
0'
#720000
0!
0/
00
1(
#730000
1!
1/
10
0(
15
1<
0:
06
02
1'
1=
07
#740000
0!
0/
00
1(
#750000
1!
1/
10
0(
1>
0;
08
05
12
1$
0&
0%
0'
#760000
0!
0/
00
1(
#770000
1!
1/
10
0(
15
1:
09
02
1'
0=
0:
#780000
0!
0/
00
1(
#790000
1!
1/
10
0(
0>
05
0<
19
12
0$
0'
#800000
0!
0/
00
1(
#810000
1!
1/
10
0(
15
1:
02
1'
#820000
0!
0/
00
1(
#830000
1!
1/
10
0(
1;
05
12
1&
0'
#840000
0!
0/
00
1(
#850000
1!
1/
10
0(
15
0:
16
02
1'
17
#860000
0!
0/
00
1(
#870000
1!
1/
10
0(
0;
18
05
12
0&
1%
0'
#880000
0!
0/
00
1(
#890000
1!
1/
10
0(
15
1:
02
1'
#900000
0!
0/
00
1(
#910000
1!
1/
10
0(
1;
05
12
1&
0'
#920000
0!
0/
00
1(
#930000
1!
1/
10
0(
15
1<
0:
06
02
1'
1=
07
#940000
0!
0/
00
1(
#950000
1!
1/
10
0(
1>
0;
08
05
12
1$
0&
0%
0'
#960000
0!
0/
00
1(
#970000
1!
1/
10
0(
15
1:
09
02
1'
0=
0:
#980000
0!
0/
00
1(
#990000
1!
1/
10
0(
0>
05
0<
19
12
0$
0'
